Division,WeightClassKg,Place,Name,Team,BodyweightKg,Best3SquatKg,Best3BenchKg,Best3DeadliftKg,TotalKg,Equipment,Event,Sex,BirthDate
Boys,51.71,1,Preston Jhagroo,Andrews,43.18,106.59,54.43,113.4,274.42,Unlimited,SBD,M,
Boys,51.71,2,Caden Reynoso,Big Spring,50.71,86.18,61.23,113.4,260.82,Unlimited,SBD,M,
Boys,51.71,DQ,Juan Rios,Big Lake Reagan County,48.9,,,,,Unlimited,SBD,M,
Boys,51.71,DQ,Joaguin Vasquez,Big Lake Reagan County,49.62,,,,,Unlimited,SBD,M,
Boys,55.79,1,Talon Cavazos,Big Spring,55.52,147.42,92.99,204.12,444.52,Unlimited,SBD,M,
Boys,55.79,2,Tomas Ramos,Snyder,55.43,142.88,83.91,142.88,369.68,Unlimited,SBD,M,
Boys,55.79,3,Josiah Cavazos,Big Spring,55.38,136.08,81.65,147.42,365.14,Unlimited,SBD,M,
Boys,55.79,4,Nehemiah Vasquez,Snyder,54.25,151.95,81.65,127.01,360.61,Unlimited,SBD,M,
Boys,55.79,5,Gerardo Rios,Big Lake Reagan County,54.61,124.74,70.31,138.35,333.39,Unlimited,SBD,M,
Boys,55.79,6,Brayden Bryant,Big Spring,55.7,117.93,74.84,108.86,301.64,Unlimited,SBD,M,
Boys,55.79,7,Ethan Yeager,Eldorado,54.16,92.99,52.16,113.4,258.55,Unlimited,SBD,M,
Boys,59.87,1,Adrian Avalos,Snyder,58.51,219.99,131.54,215.46,566.99,Unlimited,SBD,M,
Boys,59.87,2,Alejandro Flores,Snyder,58.15,215.46,142.88,195.04,553.38,Unlimited,SBD,M,
Boys,59.87,3,Tres Vasquez,Coahoma,58.6,165.56,102.06,176.9,444.52,Unlimited,SBD,M,
Boys,59.87,4,David Haygood,Andrews,57.61,158.76,92.99,183.7,435.45,Unlimited,SBD,M,
Boys,59.87,5,Bryce Davis,Coahoma,58.42,136.08,90.72,156.49,383.29,Unlimited,SBD,M,
Boys,59.87,6,Alex Gonzales,Monahans,59.69,127.01,104.33,147.42,378.75,Unlimited,SBD,M,
Boys,59.87,7,Caleb Scarborough,Idalou,56.43,120.2,74.84,113.4,308.44,Unlimited,SBD,M,
Boys,59.87,8,Ethan Hernandez,Snyder,55.88,124.74,56.7,124.74,306.17,Unlimited,SBD,M,
Boys,59.87,9,Cole Baker,Water Valley,57.61,79.38,56.7,92.99,229.06,Unlimited,SBD,M,
Boys,59.87,DQ,Lyric Holland,Big Lake Reagan County,58.15,,,,,Unlimited,SBD,M,
Boys,67.13,1,Chandler Tran,Snyder,66.22,226.8,142.88,215.46,585.13,Unlimited,SBD,M,
Boys,67.13,2,Leo Novogradic,Andrews,65.23,179.17,117.93,192.78,489.88,Unlimited,SBD,M,
Boys,67.13,3,Jasi Galindo,Eldorado,64.77,183.7,113.4,176.9,474,Unlimited,SBD,M,
Boys,67.13,4,Noah Vasquez,Idalou,63.14,185.97,108.86,174.63,469.47,Unlimited,SBD,M,
Boys,67.13,5,Marcos Paredez,Big Spring,65.05,149.69,92.99,192.78,435.45,Unlimited,SBD,M,
Boys,67.13,6,Ricky Romo,Eldorado,63.87,165.56,90.72,174.63,430.91,Unlimited,SBD,M,
Boys,67.13,7,Bryan Pearson,Coahoma,66.32,156.49,97.52,174.63,428.64,Unlimited,SBD,M,
Boys,67.13,8,Jason Regulado,Monahans,62.41,161.03,92.99,170.1,424.11,Unlimited,SBD,M,
Boys,67.13,9,Angel Sosa,Midland Greenwood,65.5,161.03,104.33,156.49,421.84,Unlimited,SBD,M,
Boys,67.13,10,Joey Vazquez,Midland Greenwood,64.5,161.03,92.99,158.76,412.77,Unlimited,SBD,M,
Boys,67.13,11,Casen Moore,Monahans,60.06,120.2,83.91,147.42,351.53,Unlimited,SBD,M,
Boys,74.84,1,Merq Saiz,Andrews,74.75,222.26,154.22,226.8,603.28,Unlimited,SBD,M,
Boys,74.84,2,Noah Fuentes,Snyder,70.03,199.58,165.56,181.44,546.58,Unlimited,SBD,M,
Boys,74.84,3,Makinly Espinoza,Andrews,72.12,204.12,113.4,204.12,521.63,Unlimited,SBD,M,
Boys,74.84,4,Ruben Bernal,Big Lake Reagan County,68.67,201.85,111.13,176.9,489.88,Unlimited,SBD,M,
Boys,74.84,5,Alfredo Hidalgo,Big Lake Reagan County,72.94,192.78,92.99,167.83,453.59,Unlimited,SBD,M,
Boys,74.84,6,Jaxon Yeager,Eldorado,69.58,161.03,90.72,183.7,435.45,Unlimited,SBD,M,
Boys,74.84,7,Seth Vargas,Monahans,70.49,163.29,86.18,179.17,428.64,Unlimited,SBD,M,
Boys,74.84,8,Isaac Esquivel,Big Lake Reagan County,70.49,165.56,86.18,172.37,424.11,Unlimited,SBD,M,
Boys,74.84,9,Aiden Bryand,Coahoma,74.57,158.76,97.52,163.29,419.57,Unlimited,SBD,M,
Boys,74.84,10,Jack Hamby,Big Spring,74.53,138.35,111.13,161.03,410.5,Unlimited,SBD,M,
Boys,74.84,11,Karson Lowery,Garden City,71.76,140.61,95.25,158.76,394.63,Unlimited,SBD,M,
Boys,74.84,12,Ramiro Arroyo,Big Spring,74.62,122.47,61.23,156.49,340.19,Unlimited,SBD,M,
Boys,74.84,13,Remington Blythe,Hermleigh,72.3,102.06,74.84,136.08,312.98,Unlimited,SBD,M,
Boys,82.1,1,Brandon Salazar,Midland Greenwood,77.56,238.14,142.88,213.19,594.21,Unlimited,SBD,M,
Boys,82.1,2,Jeremiah Orosco,Snyder,76.75,233.6,140.61,208.65,582.87,Unlimited,SBD,M,
Boys,82.1,3,Daniel Robles,Snyder,81.37,226.8,136.08,174.63,537.51,Unlimited,SBD,M,
Boys,82.1,4,Ethan Garza,Snyder,77.11,210.92,124.74,192.78,528.44,Unlimited,SBD,M,
Boys,82.1,5,Antonio Hernandez,Idalou,78.56,185.97,117.93,183.7,487.61,Unlimited,SBD,M,
Boys,82.1,6,Keaton Chavez,Monahans,81.92,158.76,97.52,176.9,433.18,Unlimited,SBD,M,
Boys,82.1,7,Charlie Mashburn,Coahoma,77.47,163.29,74.84,151.95,390.09,Unlimited,SBD,M,
Boys,82.1,8,Rylan Cypert,Garden City,81.37,111.13,68.04,136.08,315.25,Unlimited,SBD,M,
Boys,82.1,9,Tofer Baker,Garden City,79.47,113.4,68.04,127.01,308.44,Unlimited,SBD,M,
Boys,82.1,10,Aiden Smith,Hermleigh,81.37,97.52,70.31,138.35,306.17,Unlimited,SBD,M,
Boys,82.1,DQ,David Franks,Big Spring,76.79,102.06,70.31,,,Unlimited,SBD,M,
Boys,89.81,1,Connor McCrary,Andrews,88.09,272.16,165.56,285.76,723.48,Unlimited,SBD,M,
Boys,89.81,2,Tyson Valenzuela,Andrews,87.18,233.6,149.69,229.06,612.35,Unlimited,SBD,M,
Boys,89.81,3,Jaysen Santellano,Eldorado,87.45,183.7,142.88,210.92,537.51,Unlimited,SBD,M,
Boys,89.81,4,Marcos Flynn,Eldorado,86.91,167.83,129.27,172.37,469.47,Unlimited,SBD,M,
Boys,89.81,5,Rodrigo Bernal,Big Lake Reagan County,89.27,195.04,104.33,147.42,446.79,Unlimited,SBD,M,
Boys,89.81,6,Alek Rodriguez,Coahoma,86.09,165.56,95.25,140.61,401.43,Unlimited,SBD,M,
Boys,89.81,7,David Salazar,Garden City,89.72,142.88,90.72,142.88,376.48,Unlimited,SBD,M,
Boys,89.81,8,Cutter Lange,Water Valley,88.81,104.33,58.97,115.67,278.96,Unlimited,SBD,M,
Boys,89.81,9,Abel Ramirez,Water Valley,87.63,92.99,56.7,113.4,263.08,Unlimited,SBD,M,
Boys,99.79,1,Hector Lozoya,Andrews,94.89,233.6,167.83,217.72,619.15,Unlimited,SBD,M,
Boys,99.79,2,Ethan Hunsaker,Idalou,94.35,229.06,142.88,226.8,598.74,Unlimited,SBD,M,
Boys,99.79,3,Izaiah Marquez,Monahans,97.52,226.8,145.15,199.58,571.53,Unlimited,SBD,M,
Boys,99.79,4,Daylan McGee,Hermleigh,90.72,201.85,124.74,217.72,544.31,Unlimited,SBD,M,
Boys,99.79,5,Cloud Arriola,Coahoma,98.52,240.4,127.01,172.37,539.77,Unlimited,SBD,M,
Boys,99.79,6,Raul Iglesias,Eldorado,98.79,185.97,142.88,204.12,532.97,Unlimited,SBD,M,
Boys,99.79,7,Apollo Rodriguez,Idalou,98.97,188.24,136.08,183.7,508.02,Unlimited,SBD,M,
Boys,99.79,8,Zaid Hernandez,Eldorado,94.44,190.51,124.74,183.7,498.95,Unlimited,SBD,M,
Boys,99.79,9,Jacob Padron,Coahoma,95.98,167.83,120.2,174.63,462.66,Unlimited,SBD,M,
Boys,99.79,10,Ethan Ramon,Monahans,97.98,170.1,104.33,165.56,439.98,Unlimited,SBD,M,
Boys,99.79,11,Nathan Balcazar,Garden City,91.26,142.88,108.86,183.7,435.45,Unlimited,SBD,M,
Boys,99.79,12,Leandro Ramirez,Midland Greenwood,92.17,165.56,88.45,174.63,428.64,Unlimited,SBD,M,
Boys,99.79,13,Adiel Perez,Coahoma,96.43,163.29,102.06,147.42,412.77,Unlimited,SBD,M,
Boys,99.79,14,Adyn Tristan,Big Spring,99.7,156.49,92.99,158.76,408.23,Unlimited,SBD,M,
Boys,99.79,DQ,Ryan Carrillo,Big Spring,99.25,176.9,111.13,,,Unlimited,SBD,M,
Boys,109.77,1,Max Pierce,Andrews,100.88,249.48,147.42,201.85,598.74,Unlimited,SBD,M,
Boys,109.77,2,Victor Ramos,Snyder,107.77,215.46,140.61,215.46,571.53,Unlimited,SBD,M,
Boys,109.77,3,Anthony Rivera,Monahans,100.43,217.72,124.74,224.53,566.99,Unlimited,SBD,M,
Boys,109.77,4,Alonzo Uranga,Monahans,104.87,235.87,129.27,195.04,560.19,Unlimited,SBD,M,
Boys,109.77,5,Evan Bustamante,Andrews,106.14,190.51,142.88,226.8,560.19,Unlimited,SBD,M,
Boys,109.77,6,Adrian Reza,Midland Greenwood,106.23,201.85,161.03,190.51,553.38,Unlimited,SBD,M,
Boys,109.77,7,Dylan Carr,Midland Greenwood,108.77,201.85,151.95,190.51,544.31,Unlimited,SBD,M,
Boys,109.77,8,Bryan Gutierrez,Big Lake Reagan County,104.87,201.85,133.81,197.31,532.97,Unlimited,SBD,M,
Boys,109.77,9,Nathan Gomez,Idalou,104.87,183.7,117.93,192.78,494.42,Unlimited,SBD,M,
Boys,109.77,10,Gaston Bustos,Idalou,101.24,195.04,127.01,161.03,483.08,Unlimited,SBD,M,
Boys,109.77,11,Roberto Almazan,Garden City,102.51,174.63,113.4,190.51,478.54,Unlimited,SBD,M,
Boys,109.77,12,Ian Cortez,Big Lake Reagan County,103.78,192.78,102.06,161.03,455.86,Unlimited,SBD,M,
Boys,109.77,13,Jt Phillips,Idalou,101.33,174.63,92.99,185.97,453.59,Unlimited,SBD,M,
Boys,109.77,14,Reid Campbell,Hermleigh,106.87,147.42,90.72,151.95,390.09,Unlimited,SBD,M,
Boys,109.77,15,Van Goswick,Coahoma,100.52,145.15,83.91,158.76,387.82,Unlimited,SBD,M,
Boys,109.77,16,Gensyn Fuentes,Snyder,109.04,142.88,68.04,133.81,344.73,Unlimited,SBD,M,
Boys,124.74,1,Isaih Montoya,Andrews,116.12,308.44,208.65,267.62,784.71,Unlimited,SBD,M,
Boys,124.74,2,Edgar Esparza,Snyder,112.85,285.76,174.63,195.04,655.44,Unlimited,SBD,M,
Boys,124.74,3,Cash Flores,Monahans,118.39,219.99,145.15,201.85,566.99,Unlimited,SBD,M,
Boys,124.74,4,Izaiah Armendariz,Monahans,118.93,217.72,122.47,195.04,535.24,Unlimited,SBD,M,
Boys,124.74,5,Rueben Vasquez,Snyder,117.39,210.92,115.67,195.04,521.63,Unlimited,SBD,M,
Boys,124.74,6,Jordan Roberts,Big Spring,118.21,190.51,111.13,201.85,503.49,Unlimited,SBD,M,
Boys,124.74,7,Josiah New,Big Spring,113.49,183.7,99.79,195.04,478.54,Unlimited,SBD,M,
Boys,124.74,8,Cristian Garcia,Coahoma,112.31,176.9,124.74,174.63,476.27,Unlimited,SBD,M,
Boys,124.74,9,Hector Almazan,Garden City,120.11,147.42,113.4,183.7,444.52,Unlimited,SBD,M,
Boys,124.74,10,Zayden Harty,Hermleigh,112.67,111.13,74.84,151.95,337.93,Unlimited,SBD,M,
Boys,139.71,1,Joey Alvarez,Andrews,133.72,254.01,172.37,242.67,669.05,Unlimited,SBD,M,
Boys,139.71,2,Payton Pinkerton,Snyder,130.54,206.38,140.61,190.51,537.51,Unlimited,SBD,M,
Boys,139.71,3,Rhilley Allen,Midland Greenwood,134.08,183.7,113.4,158.76,455.86,Unlimited,SBD,M,
Boys,139.71,4,Treyton Pina,Eldorado,130.82,127.01,70.31,127.01,324.32,Unlimited,SBD,M,
Boys,139.71+,1,Isaac Ruacho,Hermleigh,141.7,158.76,92.99,185.97,437.72,Unlimited,SBD,M,
