Place,Name,Sex,BirthDate,Age,Country,State,Equipment,Division,BodyweightKg,WeightClassKg,Squat1Kg,Squat2Kg,Squat3Kg,Best3SquatKg,Bench1Kg,Bench2Kg,Bench3Kg,Bench4Kg,Best3BenchKg,Deadlift1Kg,Deadlift2Kg,Deadlift3Kg,Deadlift4Kg,Best3DeadliftKg,TotalKg,Event
1,Abby Rice,F,2002-06-08,21,USA,NC,Raw,J-T,71.6,75,112.5,117.5,125,125,67.5,72.5,77.5,80,77.5,127.5,132.5,137.5,,137.5,340,SBD
1,Sara Carriker,F,1993-03-11,31,USA,VA,Raw,N-X,66.9,67.5,87.5,95,100,100,50,52.5,-57.5,,52.5,130,137.5,142.5,,142.5,295,SBD
1,Sara Carriker,F,1993-03-11,31,USA,VA,Raw,O-T,66.9,67.5,87.5,95,100,100,50,52.5,-57.5,,52.5,130,137.5,142.5,,142.5,295,SBD
1,Cody Lynn Powell,F,1997-08-19,26,USA,NC,Raw,O-T,74.2,75,120,127.5,132.5,132.5,72.5,75,-77.5,,75,142.5,150,-157.5,,150,357.5,SBD
2,Abby Rice,F,2002-06-08,21,USA,NC,Raw,O-T,71.6,75,112.5,117.5,125,125,67.5,72.5,77.5,80,77.5,127.5,132.5,137.5,,137.5,340,SBD
1,Anika Harper,F,1980-04-03,44,USA,NC,Wraps,M1-T,95,100,155,170,192.5,192.5,55,60,65,,65,137.5,155,-182.5,,155,412.5,SBD
1,Anika Harper,F,1980-04-03,44,USA,NC,Wraps,O-T,95,100,155,170,192.5,192.5,55,60,65,,65,137.5,155,-182.5,,155,412.5,SBD
1,Katy Silvers,F,1981-06-08,42,USA,NC,Raw,M1-T,109.4,110,,,,,80,-87.5,87.5,,87.5,,,,,,87.5,B
1,Cherie Goldsmith,F,1965-09-13,58,USA,NC,Raw,M4-U,80.2,82.5,,,,,80,-82.5,82.5,,82.5,,,,,,82.5,B
1,Katy Silvers,F,1981-06-08,42,USA,NC,Raw,O-T,109.4,110,,,,,80,-87.5,87.5,,87.5,,,,,,87.5,B
1,Melissa Smith #1,F,1974-08-28,49,USA,NC,Multi-ply,M2-U,64.4,67.5,,,,,-142.5,-150,150,,150,,,,,,150,B
DQ,Shelley Yates,F,1975-07-19,48,USA,NC,Multi-ply,M2-U,89.72,90,,,,,-195,-200,-200,,,,,,,,,B
DQ,Shelley Yates,F,1975-07-19,48,USA,NC,Multi-ply,O-U,89.72,90,,,,,-195,-200,-200,,,,,,,,,B
1,Caleb Brooks,M,2001-12-01,22,USA,NC,Raw,J-T,73.8,75,170,180,185,185,152.5,160,165,-167.5,165,182.5,197.5,210,,210,560,SBD
2,Logan Scott,M,2002-09-08,21,USA,NC,Raw,J-T,72.7,75,165,177.5,185,185,107.5,-117.5,-117.5,,107.5,190,210,-217.5,,210,502.5,SBD
1,Conner Brittain,M,2004-01-14,20,USA,NC,Raw,J-T,137.7,140,210,225,-235,225,120,130,142.5,,142.5,222.5,245,-255,,245,612.5,SBD
1,Dusty Robinson,M,1980-08-25,43,USA,NC,Raw,M1-T,121.1,125,212.5,220,227.5,227.5,160,167.5,175,,175,220,235,242.5,,242.5,645,SBD
1,Gary Spencer,M,1976-11-05,47,USA,NC,Raw,M2-T,91,100,130,145,150,150,115,120,-122.5,,120,170,175,180,,180,450,SBD
1,Ryan Gosnell,M,1975-06-20,48,USA,SC,Raw,M2-U,88.6,90,187.5,197.5,210,210,145,157.5,-162.5,,157.5,215,230,-240,,230,597.5,SBD
1,Glenn Baggett,M,1973-04-22,50,USA,GA,Raw,M3-U,109.3,110,255,272.5,282.5,282.5,200,-207.5,207.5,,207.5,260,282.5,,,282.5,772.5,SBD
1,Jeffrey Spencer,M,1995-05-16,28,USA,NC,Raw,N-X,82.2,82.5,185,190,-192.5,190,120,130,-140,,130,200,-220,-220,,200,520,SBD
NS,Bryson Carson,M,1998-04-02,26,USA,SC,Raw,O-T,,,,,,,,,,,,,,,,,,SBD
1,Logan Scott,M,2002-09-08,21,USA,NC,Raw,O-T,72.7,75,165,177.5,185,185,107.5,-117.5,-117.5,,107.5,190,210,-217.5,,210,502.5,SBD
1,Blaise McCall,M,1994-03-08,30,USA,NC,Raw,O-T,118.3,125,222.5,242.5,257.5,257.5,200,217.5,-227.5,,217.5,217.5,232.5,252.5,,252.5,727.5,SBD
1,Jamie Salley,M,1984-04-17,39,USA,NC,Raw,S-T,73.7,75,117.5,132.5,142.5,142.5,95,102.5,105,,105,172.5,182.5,187.5,,187.5,435,SBD
1,Colton Arilotta,M,2008-09-24,15,USA,NC,Raw,T1-X,57.6,60,122.5,-130,-130,122.5,57.5,65,67.5,72.5,67.5,122.5,140,152.5,-155,152.5,342.5,SBD
1,Hayden Salley,M,2009-07-25,14,USA,NC,Raw,T1-X,71.48,75,85,92.5,-105,92.5,52.5,57.5,65,,65,105,115,130,,130,287.5,SBD
1,Dustin Spencer,M,2008-01-28,16,USA,NC,Raw,T2-X,89.95,90,160,170,182.5,182.5,95,102.5,110,,110,200,220,-227.5,,220,512.5,SBD
1,Brody Hayes,M,2006-05-23,17,USA,NC,Raw,T2-X,102.87,110,192.5,205,225,225,102.5,110,-120,,110,230,247.5,255,,255,590,SBD
1,Jason Blanco,M,2005-07-04,18,USA,NC,Raw,T3-X,79.15,82.5,165,175,177.5,177.5,107.5,115,122.5,,122.5,197.5,212.5,227.5,,227.5,527.5,SBD
1,Jeshua Whited,M,2004-10-11,19,USA,NC,Raw,T3-X,89,90,165,185,200,200,117.5,125,-130,,125,212.5,225,230,,230,555,SBD
NS,Gage Bohmuller,M,2004-01-03,20,USA,NC,Wraps,J-T,,,,,,,,,,,,,,,,,,SBD
NS,Jason Scott #1,M,1983-04-08,41,USA,SC,Wraps,M1-U,,,,,,,,,,,,,,,,,,SBD
1,Jason Hamilton,M,1981-08-02,42,USA,SC,Wraps,M1-U,82,82.5,142.5,165,192.5,192.5,105,112.5,120,,120,182.5,192.5,205,,205,517.5,SBD
NS,Michael DeWitt,M,1993-05-30,30,USA,NC,Wraps,O-T,,,,,,,,,,,,,,,,,,SBD
NS,Bob Kent,M,1968-01-19,56,USA,NC,Wraps,O-U,,,,,,,,,,,,,,,,,,SBD
1,Dillon Knighton,M,1998-12-07,25,USA,NC,Wraps,O-U,81.4,82.5,-215,215,-242.5,215,162.5,172.5,-182.5,,172.5,197.5,220,227.5,,227.5,615,SBD
1,Nick Parks,M,1990-01-06,34,USA,NC,Wraps,O-U,97.5,100,240,245,250,250,150,160,-167.5,,160,265,275,280,,280,690,SBD
2,Colton Freeman,M,1992-10-08,31,USA,NC,Wraps,O-U,94.5,100,220,237.5,250,250,135,147.5,157.5,,157.5,237.5,262.5,-272.5,,262.5,670,SBD
1,Jonathan Brogden,M,1985-08-26,38,USA,NC,Wraps,O-U,108.18,110,272.5,300,-305,300,215,227.5,-232.5,,227.5,265,-272.5,,,265,792.5,SBD
1,Jonathan Brogden,M,1985-08-26,38,USA,NC,Wraps,S-U,108.18,110,272.5,300,-305,300,215,227.5,-232.5,,227.5,265,-272.5,,,265,792.5,SBD
1,Nicolas Agundiz,M,2008-07-16,15,USA,NC,Wraps,T1-X,73.48,75,145,162.5,170,170,72.5,80,85,,85,165,185,200,,200,455,SBD
NS,Mike Sartain,M,1971-09-23,52,USA,NC,Raw,M3-T,,,,,,,,,,,,,,,,,,BD
1,Mason Galloway,M,2008-02-23,16,USA,NC,Raw,T2-X,80.65,82.5,,,,,95,110,-125,,110,172.5,175,182.5,187.5,182.5,292.5,BD
1,Nick Parks,M,1990-01-06,34,USA,NC,Raw,O-U,97.5,100,,,,,150,160,-167.5,,160,265,275,280,,280,440,BD
1,Patrick Mackin,M,1968-12-26,55,USA,SC,Raw,M4-T,67,67.5,,,,,122.5,140,142.5,,142.5,,,,,,142.5,B
1,Colin Dryden,M,1995-07-16,28,USA,SC,Raw,N-X,99.6,100,,,,,170,180,-182.5,,180,,,,,,180,B
1,Patrick Mackin,M,1968-12-26,55,USA,SC,Raw,O-T,67,67.5,,,,,122.5,140,142.5,,142.5,,,,,,142.5,B
1,Colin Dryden,M,1995-07-16,28,USA,SC,Raw,O-U,99.6,100,,,,,170,180,-182.5,,180,,,,,,180,B
1,Jonathan Brogden,M,1985-08-26,38,USA,NC,Raw,O-U,108.18,110,,,,,215,227.5,-232.5,,227.5,,,,,,227.5,B
1,Jonathan Brogden,M,1985-08-26,38,USA,NC,Raw,S-U,108.18,110,,,,,215,227.5,-232.5,,227.5,,,,,,227.5,B
NS,Bernard Werts,M,2004-10-21,19,USA,NC,Multi-ply,O-T,,,,,,,,,,,,,,,,,,B
NS,Bernard Werts,M,2004-10-21,19,USA,NC,Multi-ply,T3-X,,,,,,,,,,,,,,,,,,B
1,Alan Schnepel,M,1949-10-08,74,USA,NC,Raw,M7-T,138.2,140,,,,,,,,,,125,140,142.5,,142.5,142.5,D
1,Nick Parks,M,1990-01-06,34,USA,NC,Raw,O-U,97.5,100,,,,,,,,,,265,275,280,,280,280,D
NS,Oliver C George,M,1967-02-03,57,USA,VA,Single-ply,M4-T,,,,,,,,,,,,,,,,,,D
NS,Oliver C George,M,1967-02-03,57,USA,VA,Single-ply,MPF-T,,,,,,,,,,,,,,,,,,D
