Division,WeightClassKg,Place,Name,Team,BodyweightKg,Best3SquatKg,Best3BenchKg,Best3DeadliftKg,TotalKg,Equipment,Event,Sex,BirthDate
Boys,51.71,1,Victor Roberson,Victoria East,50.89,147.42,83.91,151.95,383.29,Unlimited,SBD,M,
Boys,51.71,2,Joseph Garza,Wharton,51.44,136.08,74.84,142.88,353.8,Unlimited,SBD,M,
Boys,51.71,3,Hector Hernandez,Wharton,50.71,108.86,83.91,115.67,308.44,Unlimited,SBD,M,
Boys,51.71,4,Lincoln Hubenak,El Campo,49.62,92.99,63.5,129.27,285.76,Unlimited,SBD,M,
Boys,51.71,NS,Donovan Medina,Edna,,,,,,Unlimited,SBD,M,
Boys,55.79,1,Imanol Mendez,Louise,54.61,188.24,108.86,183.7,480.81,Unlimited,SBD,M,
Boys,55.79,2,Shel Htoo,Port Lavaca Calhoun,55.34,172.37,111.13,185.97,469.47,Unlimited,SBD,M,
Boys,55.79,3,Joe Alarcon,Victoria East,55.61,165.56,111.13,183.7,460.4,Unlimited,SBD,M,
Boys,55.79,4,Dallas Anzaldua,El Campo,55.16,129.27,111.13,142.88,383.29,Unlimited,SBD,M,
Boys,55.79,5,Adam Gomez,Wharton,54.7,74.84,52.16,90.72,217.72,Unlimited,SBD,M,
Boys,59.87,1,Alex Tafolla,Port Lavaca Calhoun,59.87,151.95,90.72,204.12,446.79,Unlimited,SBD,M,
Boys,59.87,2,Andy Russell,El Campo,59.33,136.08,97.52,142.88,376.48,Unlimited,SBD,M,
Boys,59.87,3,Matthew Sulak,Louise,58.6,122.47,86.18,131.54,340.19,Unlimited,SBD,M,
Boys,59.87,4,Kizarny Nyar,Edna,59.51,104.33,74.84,124.74,303.91,Unlimited,SBD,M,
Boys,59.87,5,Kava Mam,Edna,57.7,104.33,68.04,124.74,297.1,Unlimited,SBD,M,
Boys,59.87,6,Javier Ventura,Louise,57.06,106.59,63.5,120.2,290.3,Unlimited,SBD,M,
Boys,59.87,NS,Kaden Grahmann,Hallettsville,,,,,,Unlimited,SBD,M,
Boys,67.13,1,Draven Garza,Victoria East,65.5,217.72,136.08,226.8,580.6,Unlimited,SBD,M,
Boys,67.13,2,Jada Andrews,Bay City,66.5,215.46,122.47,206.38,544.31,Unlimited,SBD,M,
Boys,67.13,3,Antonio Guzman,Victoria East,66.41,172.37,115.67,195.04,483.08,Unlimited,SBD,M,
Boys,67.13,4,Aiden Chisum,El Campo,62.6,138.35,113.4,165.56,417.3,Unlimited,SBD,M,
Boys,67.13,5,Christian Trevino,San Antonio St. Anthony Catholic High School,65.86,156.49,97.52,163.29,417.3,Unlimited,SBD,M,
Boys,67.13,6,Bryce Leal,Luling,63.59,138.35,77.11,151.95,367.41,Unlimited,SBD,M,
Boys,67.13,7,Gabriel DeLos Santos Jr,Bloomington,62.14,117.93,63.5,124.74,306.17,Unlimited,SBD,M,
Boys,67.13,8,Bryant D Clay Jr,Bloomington,64.86,102.06,61.23,142.88,306.17,Unlimited,SBD,M,
Boys,67.13,NS,Daymen Lopez,Bloomington,,,,,,Unlimited,SBD,M,
Boys,67.13,NS,Kyle De Leon,Wharton,,,,,,Unlimited,SBD,M,
Boys,74.84,1,Aidan Garcia,El Campo,74.39,226.8,163.29,240.4,630.49,Unlimited,SBD,M,
Boys,74.84,2,Angel Guerrero,Port Lavaca Calhoun,73.75,213.19,129.27,263.08,605.55,Unlimited,SBD,M,
Boys,74.84,3,Carlon Helms,Victoria East,72.48,206.38,113.4,204.12,523.9,Unlimited,SBD,M,
Boys,74.84,4,Cebron Taylor,Bloomington,71.3,170.1,92.99,206.38,469.47,Unlimited,SBD,M,
Boys,74.84,5,Octavian Lara,Edna,70.31,156.49,104.33,204.12,464.93,Unlimited,SBD,M,
Boys,74.84,6,Jonah Hernandez,Luling,,167.83,92.99,161.03,421.84,Unlimited,SBD,M,
Boys,74.84,7,Aidan Freeman,Luling,69.31,136.08,83.91,161.03,381.02,Unlimited,SBD,M,
Boys,74.84,8,Davion Arellano,Bay City,74.21,136.08,70.31,136.08,342.46,Unlimited,SBD,M,
Boys,74.84,9,David Goad,Wharton,69.22,129.27,74.84,136.08,340.19,Unlimited,SBD,M,
Boys,74.84,10,Leland Garcia,Bloomington,71.49,124.74,68.04,136.08,328.85,Unlimited,SBD,M,
Boys,74.84,NS,Don Reyes III,Bloomington,,,,,,Unlimited,SBD,M,
Boys,74.84,NS,Andy Rico,Port Lavaca Calhoun,,,,,,Unlimited,SBD,M,
Boys,74.84,NS,Kolten Fogle,Sweeny,,,,,,Unlimited,SBD,M,
Boys,74.84,NS,Marco Bolanos,Luling,,,,,,Unlimited,SBD,M,
Boys,74.84,NS,John Dean,Hallettsville,,,,,,Unlimited,SBD,M,
Boys,74.84,DQ,Drake Steffek,Hallettsville,72.57,167.83,,,,Unlimited,SBD,M,
Boys,82.1,1,Jordan Stafford,Victoria East,80.83,235.87,138.35,235.87,610.08,Unlimited,SBD,M,
Boys,82.1,2,Trevor Dykes,Port Lavaca Calhoun,75.57,231.33,113.4,240.4,585.13,Unlimited,SBD,M,
Boys,82.1,3,Ezequiel Medina,Louise,81.74,217.72,122.47,222.26,562.45,Unlimited,SBD,M,
Boys,82.1,4,Caleb Alvarez,Victoria East,79.2,199.58,117.93,183.7,501.22,Unlimited,SBD,M,
Boys,82.1,5,Lake Wadsworth,Louise,79.74,188.24,111.13,183.7,483.08,Unlimited,SBD,M,
Boys,82.1,6,Landon Williams,Wharton,82.01,158.76,106.59,201.85,467.2,Unlimited,SBD,M,
Boys,82.1,7,Jordan Villanueva,Hallettsville,81.19,165.56,102.06,158.76,426.38,Unlimited,SBD,M,
Boys,82.1,8,Jesus de la Rosa,Bloomington,80.1,142.88,97.52,174.63,415.04,Unlimited,SBD,M,
Boys,82.1,9,Julius Trujillo,Luling,81.01,158.76,88.45,167.83,415.04,Unlimited,SBD,M,
Boys,82.1,10,Jacob Martinez,Wharton,80.74,151.95,102.06,154.22,408.23,Unlimited,SBD,M,
Boys,82.1,11,Raymond Baladez Jr,Bloomington,80.47,142.88,74.84,142.88,360.61,Unlimited,SBD,M,
Boys,82.1,12,Kirk Campbell,Luling,82.1,122.47,79.38,145.15,347,Unlimited,SBD,M,
Boys,82.1,13,Tabari Young,Victoria East,82.1,108.86,83.91,117.93,310.71,Unlimited,SBD,M,
Boys,82.1,14,Luis Castanon,Luling,76.93,97.52,52.16,106.59,256.28,Unlimited,SBD,M,
Boys,82.1,NS,Isaac Pina,Luling,,,,,,Unlimited,SBD,M,
Boys,82.1,NS,Riley Riha,El Campo,,,,,,Unlimited,SBD,M,
Boys,82.1,NS,Braylon Alvis,Houston Eisenhower,,,,,,Unlimited,SBD,M,
Boys,82.1,NS,Paris Foz,Bay City,,,,,,Unlimited,SBD,M,
Boys,82.1,DQ,Jayden Jackson,Houston Eisenhower,78.2,102.06,,,,Unlimited,SBD,M,
Boys,89.81,1,Cayden Cantu,Victoria East,88.54,238.14,127.01,222.26,587.4,Unlimited,SBD,M,
Boys,89.81,2,Thomas Copeland,Victoria St. Joseph,85.46,229.06,142.88,208.65,580.6,Unlimited,SBD,M,
Boys,89.81,3,Xavier Salazar,Victoria East,89.18,199.58,136.08,238.14,573.79,Unlimited,SBD,M,
Boys,89.81,4,Ruben Villareal,Port Lavaca Calhoun,86,199.58,133.81,195.04,528.44,Unlimited,SBD,M,
Boys,89.81,5,Aiden Jackson,Victoria St. Joseph,88,204.12,120.2,183.7,508.02,Unlimited,SBD,M,
Boys,89.81,6,Ruben Garza,Bay City,89.27,174.63,113.4,183.7,471.74,Unlimited,SBD,M,
Boys,89.81,7,Pete Miranda,Wharton,83.01,183.7,113.4,165.56,462.66,Unlimited,SBD,M,
Boys,89.81,8,Blizao De La Rosa,Bloomington,85.18,161.03,102.06,174.63,437.72,Unlimited,SBD,M,
Boys,89.81,9,Jose Almanza,Luling,89.09,176.9,90.72,161.03,428.64,Unlimited,SBD,M,
Boys,89.81,10,Bo Woody,Port Lavaca Calhoun,89.36,161.03,102.06,142.88,405.97,Unlimited,SBD,M,
Boys,89.81,11,Aiden Arias,Bay City,84.46,131.54,74.84,167.83,374.21,Unlimited,SBD,M,
Boys,89.81,12,Vance Smith,Sweeny,85.82,124.74,79.38,113.4,317.51,Unlimited,SBD,M,
Boys,89.81,13,Asbel Hernandez,Houston Eisenhower,89.63,90.72,45.36,90.72,226.8,Unlimited,SBD,M,
Boys,89.81,NS,Brandon Emmons,Luling,,,,,,Unlimited,SBD,M,
Boys,89.81,DQ,Tristan Furch,El Campo,88.63,183.7,,,,Unlimited,SBD,M,
Boys,89.81,DQ,John Cantu,Victoria St. Joseph,88.9,190.51,,,,Unlimited,SBD,M,
Boys,89.81,DQ,Dominick Williams,Wharton,88.36,,,,,Unlimited,SBD,M,
Boys,89.81,DQ,Kolten Lowery,Hallettsville,89.81,167.83,92.99,,,Unlimited,SBD,M,
Boys,99.79,1,Jesse Sanchez,Sweeny,98.16,242.67,136.08,222.26,601.01,Unlimited,SBD,M,
Boys,99.79,2,Nicolas Debo,El Campo,95.53,199.58,165.56,206.38,571.53,Unlimited,SBD,M,
Boys,99.79,3,Jake Jenkins,Port Lavaca Calhoun,98.34,219.99,142.88,188.24,551.11,Unlimited,SBD,M,
Boys,99.79,4,Aiden Drozd,Hallettsville,98.97,183.7,142.88,224.53,551.11,Unlimited,SBD,M,
Boys,99.79,5,Gustavo Ochoa,Bay City,95.25,192.78,136.08,201.85,530.7,Unlimited,SBD,M,
Boys,99.79,6,Allec Mizera,Hallettsville,94.26,185.97,138.35,192.78,517.1,Unlimited,SBD,M,
Boys,99.79,7,Aiden Garcia,Sweeny,95.62,192.78,115.67,174.63,483.08,Unlimited,SBD,M,
Boys,99.79,8,Torre Castillo,Port Lavaca Calhoun,93.44,124.74,120.2,195.04,439.98,Unlimited,SBD,M,
Boys,99.79,9,Jeremiah Williams,Wharton,95.98,158.76,129.27,147.42,435.45,Unlimited,SBD,M,
Boys,99.79,10,Jamar Epkins,Houston Eisenhower,96.34,147.42,90.72,136.08,374.21,Unlimited,SBD,M,
Boys,99.79,11,John Mader,Sweeny,92.44,136.08,111.13,111.13,358.34,Unlimited,SBD,M,
Boys,99.79,NS,Bently Orgis,Victoria East,,,,,,Unlimited,SBD,M,
Boys,99.79,NS,Jorge Rasso,Bay City,,,,,,Unlimited,SBD,M,
Boys,99.79,NS,Clay Vrana,Hallettsville,,,,,,Unlimited,SBD,M,
Boys,99.79,DQ,Stephen Norman,El Campo,99.43,,,,,Unlimited,SBD,M,
Boys,99.79,DQ,Rj Herrera,Sweeny,94.98,170.1,,,,Unlimited,SBD,M,
Boys,99.79,DQ,Adian Sanchez,Wharton,94.89,,,,,Unlimited,SBD,M,
Boys,99.79,DQ,Mason Walker,Hallettsville,90.9,,,,,Unlimited,SBD,M,
Boys,109.77,1,Camdyn Phillips,El Campo,102.6,219.99,204.12,219.99,644.1,Unlimited,SBD,M,
Boys,109.77,2,Michael Havranek,Bloomington,105.87,229.06,133.81,183.7,546.58,Unlimited,SBD,M,
Boys,109.77,3,Mason Mader,Hallettsville,104.42,226.8,113.4,185.97,526.17,Unlimited,SBD,M,
Boys,109.77,4,Holden Bullock,Sweeny,109.23,185.97,120.2,192.78,498.95,Unlimited,SBD,M,
Boys,109.77,5,Robert Pavon,El Campo,105.41,156.49,106.59,233.6,496.68,Unlimited,SBD,M,
Boys,109.77,6,Kj Woolsey,Sweeny,100.06,181.44,133.81,151.95,467.2,Unlimited,SBD,M,
Boys,109.77,7,Kash Mozisek,Hallettsville,109.77,183.7,133.81,145.15,462.66,Unlimited,SBD,M,
Boys,109.77,8,Todd Thayer,Sweeny,106.41,167.83,117.93,154.22,439.98,Unlimited,SBD,M,
Boys,109.77,9,Jordan Longoria,Bloomington,108.68,158.76,108.86,163.29,430.91,Unlimited,SBD,M,
Boys,109.77,10,Blaine Truitt,Sweeny,99.88,151.95,102.06,147.42,401.43,Unlimited,SBD,M,
Boys,109.77,NS,Gerhino Lima,Houston Eisenhower,,,,,,Unlimited,SBD,M,
Boys,109.77,DQ,Emilio Ortiz,Port Lavaca Calhoun,109.77,206.38,,,,Unlimited,SBD,M,
Boys,124.74,1,Jakob Pesina,Bay City,113.76,263.08,183.7,229.06,675.85,Unlimited,SBD,M,
Boys,124.74,2,Courtney Williams,Bay City,109.86,233.6,145.15,219.99,598.74,Unlimited,SBD,M,
Boys,124.74,3,Bryan Tinajero,Bloomington,117.39,219.99,127.01,231.33,578.33,Unlimited,SBD,M,
Boys,124.74,4,Shane Martinez,Sweeny,116.66,229.06,149.69,188.24,566.99,Unlimited,SBD,M,
Boys,124.74,5,Gavin Chavez,Port Lavaca Calhoun,121.38,226.8,136.08,188.24,551.11,Unlimited,SBD,M,
Boys,124.74,6,Brandt Furnace,Hallettsville,123.92,197.31,131.54,172.37,501.22,Unlimited,SBD,M,
Boys,124.74,7,Albert Flores,Sweeny,112.31,145.15,124.74,158.76,428.64,Unlimited,SBD,M,
Boys,124.74,8,Mark Gabriel Hernandez,Bloomington,114.94,147.42,74.84,149.69,371.95,Unlimited,SBD,M,
Boys,124.74,DQ,Alex Salazar,Luling,115.3,,,,,Unlimited,SBD,M,
Boys,139.71,1,Pete Galvan,Louise,133.27,242.67,154.22,226.8,623.69,Unlimited,SBD,M,
Boys,139.71,2,Jeremy Maradiaga,Bay City,127.28,238.14,145.15,195.04,578.33,Unlimited,SBD,M,
Boys,139.71,3,Zalerrion Jones,Victoria East,130.63,204.12,120.2,170.1,494.42,Unlimited,SBD,M,
Boys,139.71,4,Carlos Jaramillo,Bay City,125.46,192.78,106.59,183.7,483.08,Unlimited,SBD,M,
Boys,139.71+,1,Artemio Herrera,Port Lavaca Calhoun,159.66,294.84,197.31,233.6,725.75,Unlimited,SBD,M,
Boys,139.71+,2,Marco Mata,Bay City,146.96,231.33,149.69,208.65,589.67,Unlimited,SBD,M,
Boys,139.71+,3,Barry Mangum,Wharton,156.49,92.99,90.72,117.93,301.64,Unlimited,SBD,M,
