Division,WeightClassKg,Place,Name,Team,BodyweightKg,Best3SquatKg,Best3BenchKg,Best3DeadliftKg,TotalKg,Equipment,Event,Sex,BirthDate
Boys,51.71,1,Preston Riddle,Trinity,50.53,108.86,61.23,113.4,283.5,Single-ply,SBD,M,
Boys,51.71,2,Wyatt Benett,Trinity,51.53,102.06,61.23,111.13,274.42,Single-ply,SBD,M,
Boys,55.79,1,Caleb Webb,Wills Point,55.25,136.08,88.45,147.42,371.95,Single-ply,SBD,M,
Boys,55.79,2,Jace Harrod,Palestine,54.43,136.08,83.91,124.74,344.73,Single-ply,SBD,M,
Boys,55.79,3,Kyler Snell,Grapeland,55.79,129.27,79.38,136.08,344.73,Single-ply,SBD,M,
Boys,55.79,4,Trey LaPrarie,Elkhart,54.52,133.81,65.77,131.54,331.12,Single-ply,SBD,M,
Boys,59.87,1,Braiden York,Elkhart,58.92,163.29,92.99,161.03,417.3,Single-ply,SBD,M,
Boys,59.87,2,Davis Njoroge,Wills Point,59.6,170.1,88.45,158.76,417.3,Single-ply,SBD,M,
Boys,59.87,3,Sheldon Taylor,Wills Point,59.33,113.4,68.04,156.49,337.93,Single-ply,SBD,M,
Boys,59.87,DQ,Joey Grimes,Cayuga,59.87,,,,,Single-ply,SBD,M,
Boys,67.13,1,Tyler Hunt,Palestine,66.5,219.99,138.35,199.58,557.92,Single-ply,SBD,M,
Boys,67.13,2,Remington Lassman,Trinity,66.95,208.65,108.86,185.97,503.49,Single-ply,SBD,M,
Boys,67.13,3,Jacob Brown,Livingston,66.32,147.42,104.33,188.24,439.98,Single-ply,SBD,M,
Boys,67.13,4,Cannon Fussell,Palestine,67.13,154.22,106.59,170.1,430.91,Single-ply,SBD,M,
Boys,67.13,5,Lane Williams,Elkhart,67.09,156.49,90.72,147.42,394.63,Single-ply,SBD,M,
Boys,67.13,6,Jaden Davis,Cayuga,62.14,138.35,74.84,151.95,365.14,Single-ply,SBD,M,
Boys,67.13,7,Jayden Rampy,Cayuga,63.05,129.27,74.84,149.69,353.8,Single-ply,SBD,M,
Boys,67.13,8,Jayden Ford,Trinity,60.78,81.65,58.97,79.38,219.99,Single-ply,SBD,M,
Boys,74.84,1,Max Lara,Elkhart,74.3,238.14,120.2,197.31,555.65,Single-ply,SBD,M,
Boys,74.84,2,Cole Odom,Trinity,74.84,226.8,131.54,197.31,555.65,Single-ply,SBD,M,
Boys,74.84,3,Austin Pittman,Elkhart,74.84,206.38,127.01,195.04,528.44,Single-ply,SBD,M,
Boys,74.84,4,Seth Barker,Cayuga,74.66,215.46,111.13,183.7,510.29,Single-ply,SBD,M,
Boys,74.84,5,Pablo Rodarte,Elkhart,74.71,201.85,106.59,192.78,501.22,Single-ply,SBD,M,
Boys,74.84,6,Ruger Cates,Wills Point,68.31,170.1,115.67,151.95,437.72,Single-ply,SBD,M,
Boys,74.84,7,Monty Vandemeer,Wills Point,72.21,170.1,102.06,163.29,435.45,Single-ply,SBD,M,
Boys,74.84,8,Josh Guardiola,Palestine Westwood,68.31,158.76,90.72,163.29,412.77,Single-ply,SBD,M,
Boys,74.84,9,Xander Cheek,Buffalo,73.84,151.95,88.45,161.03,401.43,Single-ply,SBD,M,
Boys,74.84,10,Jack Gilligan,Elkhart,69.31,158.76,83.91,149.69,392.36,Single-ply,SBD,M,
Boys,74.84,11,Johnny Martinez,Palestine,70.22,136.08,83.91,161.03,381.02,Single-ply,SBD,M,
Boys,74.84,12,Damorian Hill,Livingston,70.85,147.42,70.31,145.15,362.87,Single-ply,SBD,M,
Boys,74.84,13,Joel Cruz,Palestine,70.22,104.33,65.77,142.88,312.98,Single-ply,SBD,M,
Boys,74.84,14,Osvaldo Quevedo,Palestine,73.48,95.25,68.04,136.08,299.37,Single-ply,SBD,M,
Boys,82.1,1,Keanu Wolfe,Elkhart,80.97,242.67,140.61,197.31,580.6,Single-ply,SBD,M,
Boys,82.1,2,Christian Flores,Palestine Westwood,79.56,195.04,124.74,192.78,512.56,Single-ply,SBD,M,
Boys,82.1,3,Corey Caldwell,Cayuga,80.1,201.85,117.93,188.24,508.02,Single-ply,SBD,M,
Boys,82.1,4,Fabian Marquiz,Palestine,81.37,197.31,115.67,195.04,508.02,Single-ply,SBD,M,
Boys,82.1,5,Shiloh Peckham,Cayuga,81.65,183.7,86.18,183.7,453.59,Single-ply,SBD,M,
Boys,82.1,6,Nick Rea,Grapeland,82.01,181.44,86.18,158.76,426.38,Single-ply,SBD,M,
Boys,82.1,7,Ian Puckett,Trinity,76.66,158.76,106.59,133.81,399.16,Single-ply,SBD,M,
Boys,82.1,8,Giovanni Gutierrez,Trinity,80.56,140.61,90.72,149.69,381.02,Single-ply,SBD,M,
Boys,82.1,9,Traye Babb,Grapeland,76.48,129.27,83.91,142.88,356.07,Single-ply,SBD,M,
Boys,82.1,10,Alex Sierra,Palestine,76.2,117.93,79.38,140.61,337.93,Single-ply,SBD,M,
Boys,82.1,11,Hayden Pittman,Elkhart,79.38,129.27,70.31,117.93,317.51,Single-ply,SBD,M,
Boys,82.1,DQ,Hunter Link,Cayuga,76.57,,,,,Single-ply,SBD,M,
Boys,89.81,1,Gabe Villarreal,Palestine Westwood,89.27,213.19,122.47,235.87,571.53,Single-ply,SBD,M,
Boys,89.81,2,Brayden Ethier,Livingston,86.09,208.65,124.74,201.85,535.24,Single-ply,SBD,M,
Boys,89.81,3,David Mckendree,Trinity,88.18,197.31,124.74,195.04,517.1,Single-ply,SBD,M,
Boys,89.81,4,Austin Frazier,Palestine Westwood,88.9,215.46,99.79,201.85,517.1,Single-ply,SBD,M,
Boys,89.81,5,Christian Martinez,Buffalo,89.63,176.9,113.4,172.37,462.66,Single-ply,SBD,M,
Boys,89.81,6,Micah Harrison,Livingston,87.63,149.69,102.06,156.49,408.23,Single-ply,SBD,M,
Boys,89.81,7,Jaden Jordan,Livingston,88.9,149.69,92.99,145.15,387.82,Single-ply,SBD,M,
Boys,89.81,8,Wyatt Lewis,Grapeland,85.82,133.81,74.84,172.37,381.02,Single-ply,SBD,M,
Boys,89.81,9,Juan Cruz,Wills Point,89.81,158.76,86.18,113.4,358.34,Single-ply,SBD,M,
Boys,99.79,1,Enrique Tellez,Livingston,90.9,222.26,136.08,224.53,582.87,Single-ply,SBD,M,
Boys,99.79,2,Lamont Smith,Elkhart,95.48,213.19,113.4,201.85,528.44,Single-ply,SBD,M,
Boys,99.79,DQ,Landan Henry,Cayuga,99.52,,,,,Single-ply,SBD,M,
Boys,99.79,DQ,Austin Smart,Palestine Westwood,91.63,,,,,Single-ply,SBD,M,
Boys,99.79,DQ,Aaron Caceres,Trinity,91.26,,,,,Single-ply,SBD,M,
Boys,109.77,1,Xavier Mindiola,Livingston,105.51,254.01,170.1,231.33,655.44,Single-ply,SBD,M,
Boys,109.77,2,Matthew Gomez,Palestine Westwood,106.68,213.19,127.01,226.8,566.99,Single-ply,SBD,M,
Boys,109.77,3,Tallan Atkinson,Livingston,100.61,199.58,117.93,204.12,521.63,Single-ply,SBD,M,
Boys,109.77,4,Hector Ruiz,Palestine,105.51,183.7,117.93,183.7,485.34,Single-ply,SBD,M,
Boys,109.77,DQ,Dakota Ryder,Wills Point,107.41,,,,,Single-ply,SBD,M,
Boys,124.74,1,Jarius Crew,Livingston,112.85,215.46,129.27,199.58,544.31,Single-ply,SBD,M,
Boys,124.74,2,Joel Rodriguez,Cayuga,120.93,154.22,90.72,147.42,392.36,Single-ply,SBD,M,
Boys,124.74,DQ,Reese Boyd,Buffalo,116.57,,115.67,204.12,,Single-ply,SBD,M,
Boys,124.74,DQ,Nathanial Smith,Palestine Westwood,118.84,,,,,Single-ply,SBD,M,
Boys,139.71,1,Elis Caceres,Trinity,132.54,235.87,127.01,231.33,594.21,Single-ply,SBD,M,
Boys,139.71,2,Treye Atkinso,Livingston,133.72,215.46,102.06,206.38,523.9,Single-ply,SBD,M,
Boys,139.71,3,Jason DeCluette,Grapeland,136.71,204.12,104.33,192.78,501.22,Single-ply,SBD,M,
Boys,139.71,4,Dameon Kampfer,Livingston,131.45,183.7,136.08,172.37,492.15,Single-ply,SBD,M,
Boys,139.71,DQ,Jacob Ingram,Cayuga,132.45,,117.93,201.85,,Single-ply,SBD,M,
Boys,139.71+,1,Johnny Morales,Cayuga,145.33,267.62,142.88,260.82,671.32,Single-ply,SBD,M,
Boys,139.71+,2,Brynten White,Livingston,141.61,249.48,163.29,226.8,639.57,Single-ply,SBD,M,
Boys,139.71+,3,Cody Hoisington,Cayuga,167.83,142.88,56.7,163.29,362.87,Single-ply,SBD,M,
Boys,139.71+,DQ,Justin Ellington,Grapeland,152.04,,,,,Single-ply,SBD,M,
