Division,WeightClassKg,Place,Name,Team,BodyweightKg,Best3SquatKg,Best3BenchKg,Best3DeadliftKg,TotalKg,Equipment,Event,Sex,BirthDate
Boys,51.71,DQ,Zayvelyn Quitugua,Killeen Shoemaker,44,,,,,Unlimited,SBD,M,
Boys,55.79,1,Joseph Guzman,Lockhart,55.79,138.35,88.45,154.22,381.02,Unlimited,SBD,M,
Boys,55.79,2,Isaac Jacob,Lockhart,53.07,113.4,54.43,127.01,294.84,Unlimited,SBD,M,
Boys,55.79,3,Samuel Kabbaz,Pflugerville Weiss,54.43,,72.57,122.47,195.04,Unlimited,BD,M,
Boys,55.79,DQ,Daeja Sprankel-McGinnis,Killeen Shoemaker,55.79,,,,,Unlimited,SBD,M,
Boys,59.87,1,Miguel Escalante,Pflugerville Hendrickson,58.97,170.1,97.52,183.7,451.32,Unlimited,SBD,M,
Boys,59.87,2,Asher Kamenicky,Pflugerville Hendrickson,59.42,142.88,111.13,183.7,437.72,Unlimited,SBD,M,
Boys,59.87,3,James Lee,Pflugerville Hendrickson,59.42,145.15,108.86,165.56,419.57,Unlimited,SBD,M,
Boys,59.87,4,Ayden Kamenicky,Pflugerville Hendrickson,59.87,140.61,97.52,156.49,394.63,Unlimited,SBD,M,
Boys,59.87,5,Tristan Espinoza,Pflugerville Hendrickson,57.61,136.08,92.99,147.42,376.48,Unlimited,SBD,M,
Boys,59.87,DQ,Ame Concepcion Orozco,Killeen Shoemaker,59.87,,,,,Unlimited,SBD,M,
Boys,67.13,1,James Edwards,Georgetown East View,60.33,136.08,68.04,129.27,333.39,Unlimited,SBD,M,
Boys,67.13,2,Ben Mendez,Lockhart,60.78,124.74,79.38,127.01,331.12,Unlimited,SBD,M,
Boys,67.13,3,Austin Parkhurst,Pflugerville Weiss,66.68,115.67,81.65,127.01,324.32,Unlimited,SBD,M,
Boys,67.13,4,Oscar Pena,Jarrell,67.13,138.35,79.38,102.06,319.78,Unlimited,SBD,M,
Boys,67.13,5,Angel Lemus,Killeen Shoemaker,61.69,97.52,65.77,154.22,317.51,Unlimited,SBD,M,
Boys,67.13,6,Marcos Urrutiajuarez,Pflugerville Weiss,65.32,138.35,,151.95,290.3,Unlimited,SD,M,
Boys,67.13,7,Noah White,Jarrell,66.22,74.84,58.97,127.01,260.82,Unlimited,SBD,M,
Boys,67.13,8,Aiden Grissom,Georgetown,66.22,115.67,,131.54,247.21,Unlimited,SD,M,
Boys,67.13,9,Sergio Zavala,Pflugerville Weiss,64.41,65.77,,106.59,172.37,Unlimited,SD,M,
Boys,67.13,10,Peyton Belcher,Jarrell,66.68,74.84,,92.99,167.83,Unlimited,SD,M,
Boys,74.84,1,Branden Hecker,Pflugerville Hendrickson,71.67,170.1,129.27,188.24,487.61,Unlimited,SBD,M,
Boys,74.84,2,Sebastian Rivera,Killeen Shoemaker,74.84,195.04,108.86,167.83,471.74,Unlimited,SBD,M,
Boys,74.84,3,Zyton Hajda,Jarrell,73.03,140.61,88.45,176.9,405.97,Unlimited,SBD,M,
Boys,74.84,4,Miguel Portillo,Lockhart,73.94,161.03,95.25,147.42,403.7,Unlimited,SBD,M,
Boys,74.84,5,Brylie Agpaoa,Killeen Shoemaker,74.84,142.88,74.84,183.7,401.43,Unlimited,SBD,M,
Boys,74.84,6,Jack Haverd-Galvan,Georgetown,68.04,133.81,104.33,158.76,396.89,Unlimited,SBD,M,
Boys,74.84,7,John Papaconstantinou,Georgetown,73.03,124.74,111.13,133.81,369.68,Unlimited,SBD,M,
Boys,74.84,8,Matthew Birdwell,Killeen Shoemaker,72.57,136.08,90.72,136.08,362.87,Unlimited,SBD,M,
Boys,74.84,9,Diego King,Killeen Shoemaker,74.39,138.35,81.65,136.08,356.07,Unlimited,SBD,M,
Boys,74.84,10,Thomas Martinez,Jarrell,73.03,104.33,70.31,149.69,324.32,Unlimited,SBD,M,
Boys,74.84,11,Jared Avena,Jarrell,71.67,138.35,,138.35,276.69,Unlimited,SD,M,
Boys,74.84,12,Carter Poulson,Killeen Shoemaker,70.31,90.72,47.63,97.52,235.87,Unlimited,SBD,M,
Boys,74.84,DQ,Cooper Hall,Georgetown,74.84,,,,,Unlimited,SBD,M,
Boys,82.1,1,Jude Stippick,Georgetown East View,79.38,206.38,120.2,226.8,553.38,Unlimited,SBD,M,
Boys,82.1,2,Keiston Rainey,Georgetown East View,76.66,158.76,108.86,172.37,439.98,Unlimited,SBD,M,
Boys,82.1,3,Nate Gonzales,Lockhart,79.38,172.37,95.25,170.1,437.72,Unlimited,SBD,M,
Boys,82.1,4,Noah Herrera,Georgetown East View,76.66,158.76,97.52,161.03,417.3,Unlimited,SBD,M,
Boys,82.1,5,Justin Vinces-Ortiz,Jarrell,82.1,133.81,102.06,179.17,415.04,Unlimited,SBD,M,
Boys,82.1,6,Caleb Webster,Jarrell,82.1,142.88,108.86,158.76,410.5,Unlimited,SBD,M,
Boys,82.1,7,Ryan Lauer,Georgetown,81.19,174.63,,174.63,349.27,Unlimited,SD,M,
Boys,82.1,8,Nathan Morris,Pflugerville Weiss,78.93,129.27,,151.95,281.23,Unlimited,SD,M,
Boys,82.1,DQ,Jasiyah Riley,Killeen Shoemaker,82.1,,,,,Unlimited,SBD,M,
Boys,89.81,1,Logan Morris,Pflugerville Hendrickson,88.9,254.01,161.03,190.51,605.55,Unlimited,SBD,M,
Boys,89.81,2,Edward Mendoza,Lockhart,86.64,226.8,129.27,217.72,573.79,Unlimited,SBD,M,
Boys,89.81,3,Jonathan Newman,Pflugerville Weiss,84.37,174.63,122.47,190.51,487.61,Unlimited,SBD,M,
Boys,89.81,4,Henry Martone,Jarrell,83.01,154.22,102.06,188.24,444.52,Unlimited,SBD,M,
Boys,89.81,5,Oluseye Akeredolu,Pflugerville Hendrickson,89.81,156.49,104.33,183.7,444.52,Unlimited,SBD,M,
Boys,89.81,6,Tyler Hall,Pflugerville Weiss,89.36,131.54,97.52,149.69,378.75,Unlimited,SBD,M,
Boys,89.81,7,Johnny Fraser,Georgetown East View,83.91,129.27,79.38,142.88,351.53,Unlimited,SBD,M,
Boys,89.81,8,Brayden Sanso,Georgetown,89.81,108.86,,127.01,235.87,Unlimited,SD,M,
Boys,89.81,9,Avion Lucas,Killeen Shoemaker,88.45,129.27,79.38,,208.65,Unlimited,SB,M,
Boys,99.79,1,Tysan Breaux,Pflugerville Hendrickson,99.34,238.14,151.95,242.67,632.76,Unlimited,SBD,M,
Boys,99.79,2,Max Cavazos,Georgetown East View,98.43,183.7,142.88,190.51,517.1,Unlimited,SBD,M,
Boys,99.79,3,Jason Cruz,Lockhart,99.79,183.7,108.86,208.65,501.22,Unlimited,SBD,M,
Boys,99.79,4,Kaleb Alvarado,Lockhart,92.99,170.1,113.4,170.1,453.59,Unlimited,SBD,M,
Boys,99.79,5,Emelio Rodriguez-Washington,Killeen Shoemaker,98.43,142.88,102.06,161.03,405.97,Unlimited,SBD,M,
Boys,99.79,6,Zander Hess,Jarrell,92.99,136.08,77.11,142.88,356.07,Unlimited,SBD,M,
Boys,99.79,7,Aaron Reyes,Georgetown East View,97.98,199.58,102.06,,301.64,Unlimited,SB,M,
Boys,109.77,1,Jay Haynes,Killeen Shoemaker,105.69,213.19,127.01,215.46,555.65,Unlimited,SBD,M,
Boys,109.77,2,Tyler Gottschalk,Pflugerville Weiss,104.78,204.12,131.54,210.92,546.58,Unlimited,SBD,M,
Boys,109.77,3,Dylan Ovalle,Lockhart,106.59,188.24,124.74,188.24,501.22,Unlimited,SBD,M,
Boys,109.77,4,Saul Hinojos,Lockhart,102.06,181.44,120.2,179.17,480.81,Unlimited,SBD,M,
Boys,124.74,1,Ryan Mischkot,Georgetown,120.2,213.19,131.54,174.63,519.36,Unlimited,SBD,M,
Boys,124.74,2,Brandon Cothran,Georgetown,114.76,161.03,117.93,142.88,421.84,Unlimited,SBD,M,
Boys,124.74,DQ,Joe Johnson,Lockhart,114.31,,,,,Unlimited,SBD,M,
Boys,124.74,DQ,Xavier Watkins,Killeen Shoemaker,124.74,,,,,Unlimited,SBD,M,
Boys,124.74,DQ,James Gonzalez,Pflugerville Hendrickson,124.74,,,,,Unlimited,SBD,M,
Boys,139.71,1,Kareem Edmon,Killeen Shoemaker,134.72,238.14,142.88,272.16,653.17,Unlimited,SBD,M,
Boys,139.71,2,Brayden Martinez,Lockhart,130.18,226.8,127.01,174.63,528.44,Unlimited,SBD,M,
Boys,139.71,3,Cody Ceder,Jarrell,138.35,183.7,113.4,142.88,439.98,Unlimited,SBD,M,
Boys,139.71,4,Augestine Smith,Georgetown East View,125.19,156.49,106.59,142.88,405.97,Unlimited,SBD,M,
Boys,139.71+,1,Jay Simmons,Pflugerville Hendrickson,151.05,244.94,185.97,226.8,657.71,Unlimited,SBD,M,
Boys,139.71+,2,Andres Rodriguez,Georgetown East View,143.34,206.38,129.27,163.29,498.95,Unlimited,SBD,M,
Boys,139.71+,3,Dylan Lester,Jarrell,145.6,170.1,102.06,210.92,483.08,Unlimited,SBD,M,
Boys,139.71+,4,Dominguez Vazquez Justin,Georgetown East View,140.16,181.44,120.2,170.1,471.74,Unlimited,SBD,M,
Boys,,NS,Jonathan Martinez,Killeen Shoemaker,,,,,,Unlimited,SBD,M,
