Division,WeightClassKg,Place,Name,Team,BodyweightKg,Best3SquatKg,Best3BenchKg,Best3DeadliftKg,TotalKg,Equipment,Event,Sex
Boys,51.71,1,Jason Ayers,Lampasas,51.48,149.69,81.65,172.37,403.7,Single-ply,SBD,M
Boys,51.71,2,Abe Villareal,Belton,51.62,138.35,77.11,167.83,383.29,Single-ply,SBD,M
Boys,51.71,3,Preston Fox,Lampasas,47.9,102.06,61.23,111.13,274.42,Single-ply,SBD,M
Boys,51.71,4,Santiago Ortega,Belton,51.35,95.25,52.16,111.13,258.55,Single-ply,SBD,M
Boys,51.71,5,Trevon Collier,Killeen Shoemaker,50.48,90.72,43.09,104.33,238.14,Single-ply,SBD,M
Boys,55.79,1,Alec Webster,Killeen Shoemaker,55.2,199.58,122.47,188.24,510.29,Single-ply,SBD,M
Boys,55.79,2,Bryan McNeill,Rogers,53.16,127.01,70.31,136.08,333.39,Single-ply,SBD,M
Boys,55.79,3,Marquez Thompkins,Temple,55.75,102.06,79.38,133.81,315.25,Single-ply,SBD,M
Boys,55.79,4,Antonio White,Copperas Cove,53.16,113.4,63.5,127.01,303.91,Single-ply,SBD,M
Boys,55.79,5,Alain Rabarisoamihono,Temple,51.89,88.45,54.43,117.93,260.82,Single-ply,SBD,M
Boys,55.79,6,Yvell Louis,Copperas Cove,52.44,86.18,54.43,108.86,249.48,Single-ply,SBD,M
Boys,59.87,1,Channing Christophe,Killeen Shoemaker,59.19,174.63,113.4,199.58,487.61,Single-ply,SBD,M
Boys,59.87,3,Anthony Montes,Lampasas,58.79,151.95,104.33,161.03,417.3,Single-ply,SBD,M
Boys,59.87,4,Dakota Cavozos,Lampasas,59.87,149.69,104.33,154.22,408.23,Single-ply,SBD,M
Boys,59.87,5,Martin Stafford,Belton,57.74,142.88,81.65,154.22,378.75,Single-ply,SBD,M
Boys,67.13,1,Sean Williams #4,Lampasas,65.18,192.78,113.4,192.78,498.95,Single-ply,SBD,M
Boys,67.13,2,Jaylan Hannah,Copperas Cove,66.63,170.1,102.06,181.44,453.59,Single-ply,SBD,M
Boys,67.13,2,Dwight Roberts,Temple,59.96,165.56,97.52,181.44,444.52,Single-ply,SBD,M
Boys,67.13,3,Ethan Pierce,Rogers,63.87,167.83,90.72,154.22,412.77,Single-ply,SBD,M
Boys,67.13,5,Ethan Oakes,Lampasas,63.91,149.69,95.25,158.76,403.7,Single-ply,SBD,M
Boys,67.13,6,Christian Castillo,Belton,61.14,147.42,68.04,167.83,383.29,Single-ply,SBD,M
Boys,67.13,7,Kaleb Honts,Copperas Cove,60.51,136.08,77.11,165.56,378.75,Single-ply,SBD,M
Boys,67.13,8,Quintin Canon,Temple,60.6,136.08,83.91,158.76,378.75,Single-ply,SBD,M
Boys,67.13,9,Troy Johnson,Copperas Cove,65.91,149.69,79.38,147.42,376.48,Single-ply,SBD,M
Boys,67.13,10,Blair Frasier,Copperas Cove,65.73,133.81,79.38,151.95,365.14,Single-ply,SBD,M
Boys,67.13,11,Kevin Wylie,Lampasas,66,142.88,77.11,142.88,362.87,Single-ply,SBD,M
Boys,67.13,12,Mark Ochoa,Temple,64.09,136.08,79.38,138.35,353.8,Single-ply,SBD,M
Boys,67.13,13,Merrick Williams,Temple,62.37,129.27,65.77,154.22,349.27,Single-ply,SBD,M
Boys,74.84,1,Jameel Creech,Killeen Shoemaker,73.3,226.8,124.74,206.38,557.92,Single-ply,SBD,M
Boys,74.84,2,Demontrez Miller,Killeen Shoemaker,73.94,190.51,113.4,185.97,489.88,Single-ply,SBD,M
Boys,74.84,3,Brendan Hunt,Belton,67.31,185.97,90.72,181.44,458.13,Single-ply,SBD,M
Boys,74.84,4,Isiah Hawkins,Copperas Cove,67.18,138.35,106.59,165.56,410.5,Single-ply,SBD,M
Boys,74.84,4,Michael Vernardos,Copperas Cove,69.9,151.95,83.91,161.03,396.89,Single-ply,SBD,M
Boys,74.84,5,Michael Cornish,Lampasas,71.49,149.69,90.72,149.69,390.09,Single-ply,SBD,M
Boys,74.84,DQ,Vincent Leon,Lampasas,74.75,154.22,,,,Single-ply,SBD,M
Boys,74.84,DQ,Bradley Schwartzengraber,Copperas Cove,73.66,,,,,Single-ply,SBD,M
Boys,82.1,1,Malik Stoutamire,Temple,75.34,226.8,142.88,233.6,603.28,Single-ply,SBD,M
Boys,82.1,2,Alex Aaron,Belton,81.1,204.12,117.93,199.58,521.63,Single-ply,SBD,M
Boys,82.1,3,Michael Nguyen #15,Lampasas,79.42,192.78,90.72,199.58,483.08,Single-ply,SBD,M
Boys,82.1,4,Keanu Comacho,Copperas Cove,81.01,195.04,108.86,174.63,478.54,Single-ply,SBD,M
Boys,82.1,5,Nico Keaton,Rogers,79.02,185.97,97.52,183.7,467.2,Single-ply,SBD,M
Boys,82.1,6,Tim Edwards,Copperas Cove,79.24,170.1,111.13,183.7,464.93,Single-ply,SBD,M
Boys,82.1,7,Kylan Herrera,Copperas Cove,76.16,167.83,106.59,181.44,455.86,Single-ply,SBD,M
Boys,82.1,8,Josh Russel,Rogers,80.33,172.37,86.18,158.76,417.3,Single-ply,SBD,M
Boys,82.1,9,Dejuan Hampton,Copperas Cove,77.97,154.22,88.45,170.1,412.77,Single-ply,SBD,M
Boys,82.1,10,Timothy Egans,Copperas Cove,81.65,142.88,70.31,158.76,371.95,Single-ply,SBD,M
Boys,82.1,DQ,Edward Lopez,Copperas Cove,76.2,113.4,72.57,,,Single-ply,SBD,M
Boys,82.1,DQ,Eric Caine,Copperas Cove,78.52,,102.06,199.58,,Single-ply,SBD,M
Boys,82.1,DQ,Trey Pennick,Killeen Shoemaker,79.97,129.27,,165.56,,Single-ply,SBD,M
Boys,89.81,1,John Harvey,Belton,87.68,231.33,129.27,231.33,591.94,Single-ply,SBD,M
Boys,89.81,2,Rogers Franklin,Temple,86.59,185.97,117.93,206.38,510.29,Single-ply,SBD,M
Boys,89.81,3,Ajani Rogers,Temple,87.86,170.1,129.27,204.12,503.49,Single-ply,SBD,M
Boys,89.81,4,Cortney Young #2,Rogers,82.55,201.85,102.06,195.04,498.95,Single-ply,SBD,M
Boys,89.81,5,Da'Tavion Hall,Temple,86.23,192.78,129.27,176.9,498.95,Single-ply,SBD,M
Boys,89.81,6,Bryce Avila,Belton,89.68,197.31,113.4,188.24,498.95,Single-ply,SBD,M
Boys,89.81,7,Sean Adams,Copperas Cove,87.91,190.51,102.06,204.12,496.68,Single-ply,SBD,M
Boys,89.81,8,Jacob Rogers,Belton,89.31,188.24,106.59,185.97,480.81,Single-ply,SBD,M
Boys,89.81,9,Justin Buuck,Belton,85.09,170.1,111.13,181.44,462.66,Single-ply,SBD,M
Boys,89.81,10,Cornez Harris,Killeen Shoemaker,85.09,185.97,95.25,174.63,455.86,Single-ply,SBD,M
Boys,89.81,DQ,Marvin Moore,Copperas Cove,89.36,147.42,77.11,190.51,,Single-ply,SBD,M
Boys,89.81,DQ,Vincent Wilson,Rogers,82.69,,136.08,,,Single-ply,SBD,M
Boys,89.81,DQ,Curry Buddy,Belton,86.82,,,,,Single-ply,SBD,M
Boys,99.79,1,Jerry Leyba,Belton,90.95,238.14,129.27,226.8,594.21,Single-ply,SBD,M
Boys,99.79,2,Ethan Scruggs,Copperas Cove,97.02,233.6,129.27,226.8,589.67,Single-ply,SBD,M
Boys,99.79,3,Noah Von Benzerath,Lampasas,97.57,215.46,131.54,219.99,566.99,Single-ply,SBD,M
Boys,99.79,4,Fernando Ramirez,Copperas Cove,99.7,174.63,104.33,183.7,462.66,Single-ply,SBD,M
Boys,99.79,5,Jeremy Rodgers,Lampasas,94.85,154.22,83.91,190.51,428.64,Single-ply,SBD,M
Boys,109.77,1,Brandon Gangloff,Belton,107.41,233.6,156.49,222.26,612.35,Single-ply,SBD,M
Boys,109.77,2,Arturo Jamies,Belton,107.91,224.53,117.93,238.14,580.6,Single-ply,SBD,M
Boys,109.77,3,Cody Garrett,Belton,109.77,240.4,127.01,208.65,576.06,Single-ply,SBD,M
Boys,109.77,4,Cameron Bausley,Killeen Shoemaker,106,219.99,136.08,215.46,571.53,Single-ply,SBD,M
Boys,109.77,5,David Fischer,Belton,105.19,222.26,117.93,213.19,553.38,Single-ply,SBD,M
Boys,109.77,6,Matthew Hernandez,Killeen Shoemaker,107.41,208.65,136.08,183.7,528.44,Single-ply,SBD,M
Boys,109.77,7,Jerod Jackson,Belton,108.36,208.65,117.93,179.17,505.76,Single-ply,SBD,M
Boys,109.77,8,Levi Libhart,Rogers,101.2,181.44,97.52,174.63,453.59,Single-ply,SBD,M
Boys,109.77,9,Josh Smith #11,Copperas Cove,103.42,149.69,99.79,170.1,419.57,Single-ply,SBD,M
Boys,109.77,10,Eric Yescas,Lampasas,107.32,213.19,127.01,,340.19,Single-ply,SB,M
Boys,109.77,DQ,Arvin Jones,Killeen Shoemaker,101.88,,,,,Single-ply,SBD,M
Boys,124.74,1,Braden Martinez,Belton,121.7,310.71,158.76,288.03,757.5,Single-ply,SBD,M
Boys,124.74,2,James Vernardos,Copperas Cove,124.1,235.87,129.27,238.14,603.28,Single-ply,SBD,M
Boys,124.74,3,Lamonte Williams,Temple,123.15,219.99,138.35,217.72,576.06,Single-ply,SBD,M
Boys,124.74,4,Kellan Anderson,Rogers,112.67,226.8,111.13,201.85,539.77,Single-ply,SBD,M
Boys,124.74,5,Ethan Mendoza,Rogers,123.79,238.14,117.93,176.9,532.97,Single-ply,SBD,M
Boys,124.74,6,Josh Childress,Temple,115.12,188.24,104.33,190.51,483.08,Single-ply,SBD,M
Boys,124.74,7,Derrick Martin,Temple,123.1,172.37,99.79,195.04,467.2,Single-ply,SBD,M
Boys,124.74,8,Robert Moore #8,Killeen Shoemaker,112.94,170.1,113.4,163.29,446.79,Single-ply,SBD,M
Boys,124.74,9,Marc Neaves,Rogers,115.26,167.83,77.11,145.15,390.09,Single-ply,SBD,M
Boys,124.74,10,Aaron Hewitt,Lampasas,114.67,163.29,70.31,136.08,369.68,Single-ply,SBD,M
Boys,124.74,DQ,Wyatt Chambers,Temple,111.95,136.08,,158.76,,Single-ply,SBD,M
Boys,124.74+,1,Javon Chambers,Belton,139.3,306.17,154.22,219.99,680.39,Single-ply,SBD,M
Boys,124.74+,2,Josh Haynes,Temple,159.48,249.48,136.08,226.8,612.35,Single-ply,SBD,M
Boys,124.74+,3,Phillip Haskins,Temple,129,204.12,102.06,210.92,517.1,Single-ply,SBD,M
Boys,124.74+,4,James Fry,Rogers,129,215.46,108.86,181.44,505.76,Single-ply,SBD,M
Boys,,NS,Bryce Ranes,Copperas Cove,,,,,,Single-ply,SBD,M
Boys,,NS,Delante Adkinson,Temple,,,,,,Single-ply,SBD,M
Boys,,NS,Devante Neely,Temple,,,,,,Single-ply,SBD,M
