Division,WeightClassKg,Place,Name,Team,BodyweightKg,Best3SquatKg,Best3BenchKg,Best3DeadliftKg,TotalKg,Equipment,Event,Sex
Boys,51.71,1,Brian Villarreal,Geronimo Navarro,46.72,120.2,65.77,142.88,328.85,Single-ply,SBD,M
Boys,51.71,2,Cody Faust,Yoakum,47.4,97.52,61.23,106.59,265.35,Single-ply,SBD,M
Boys,51.71,3,Ty Henderson,Lockhart,48.99,95.25,58.97,111.13,265.35,Single-ply,SBD,M
Boys,55.79,1,Alex Mata,Lockhart,55.34,127.01,61.23,151.95,340.19,Single-ply,SBD,M
Boys,55.79,2,Gabriel James Garcia,Yoakum,53.07,104.33,61.23,113.4,278.96,Single-ply,SBD,M
Boys,55.79,DQ,Johnny Jimenez,Stockdale,55.34,138.35,83.91,,,Single-ply,SBD,M
Boys,59.87,1,Alex Ortiz #3,Gonzales,59.51,170.1,92.99,147.42,410.5,Single-ply,SBD,M
Boys,59.87,2,Joaquin Munoz #2,Stockdale,59.65,117.93,81.65,158.76,358.34,Single-ply,SBD,M
Boys,59.87,3,Michael III Chomout,Yoakum,58.74,136.08,68.04,136.08,340.19,Single-ply,SBD,M
Boys,59.87,4,Josh Rangel,Stockdale,59.19,115.67,70.31,124.74,310.71,Single-ply,SBD,M
Boys,59.87,5,Dalton Ward,La Grange,59.87,99.79,52.16,102.06,254.01,Single-ply,SBD,M
Boys,59.87,6,Merville Johnson,La Grange,58.74,92.99,68.04,79.38,240.4,Single-ply,SBD,M
Boys,67.13,1,Brian Lopez,Geronimo Navarro,65.54,181.44,115.67,201.85,498.95,Single-ply,SBD,M
Boys,67.13,2,Juan Gonzales,Yoakum,65.77,181.44,122.47,174.63,478.54,Single-ply,SBD,M
Boys,67.13,3,Nathan Thiry,Yoakum,65.54,161.03,115.67,172.37,449.06,Single-ply,SBD,M
Boys,67.13,4,Devin McMahan,Stockdale,63.5,156.49,97.52,174.63,428.64,Single-ply,SBD,M
Boys,67.13,5,Hugo Perez,Lockhart,65.54,151.95,81.65,188.24,421.84,Single-ply,SBD,M
Boys,67.13,DQ,Dj Ellison,Lockhart,67.13,,,,,Single-ply,SBD,M
Boys,74.84,1,Travis Schauer,Gonzales,73.8,158.76,95.25,172.37,426.38,Single-ply,SBD,M
Boys,74.84,2,Kyler McBlane,Stockdale,72.35,142.88,63.5,158.76,365.14,Single-ply,SBD,M
Boys,74.84,3,Aaron Hunt,Gonzales,68.49,133.81,92.99,131.54,358.34,Single-ply,SBD,M
Boys,74.84,DQ,Greg Rivera,Lockhart,74.84,,,,,Single-ply,SBD,M
Boys,74.84,DQ,Bralon Hutchison,La Grange,73.48,,,,,Single-ply,SBD,M
Boys,82.1,1,Jamie Tellez,Gonzales,79.83,226.8,124.74,240.4,591.94,Single-ply,SBD,M
Boys,82.1,2,Jay Leal,Geronimo Navarro,78.7,204.12,111.13,233.6,548.85,Single-ply,SBD,M
Boys,82.1,3,Joel Juarez,Lockhart,80.97,174.63,104.33,204.12,483.08,Single-ply,SBD,M
Boys,82.1,4,Ricky Camarillo,Yoakum,82.1,183.7,115.67,183.7,483.08,Single-ply,SBD,M
Boys,82.1,5,JK Dobbins,La Grange,76.2,192.78,106.59,170.1,469.47,Single-ply,SBD,M
Boys,82.1,6,Jared Leal,Geronimo Navarro,80.06,183.7,92.99,188.24,464.93,Single-ply,SBD,M
Boys,82.1,7,Trent Schauer,Gonzales,82.05,158.76,99.79,167.83,426.38,Single-ply,SBD,M
Boys,82.1,8,Matt Gomez,Geronimo Navarro,80.74,154.22,88.45,174.63,417.3,Single-ply,SBD,M
Boys,82.1,9,Ryan Gasch,Yoakum,76.66,133.81,90.72,122.47,347,Single-ply,SBD,M
Boys,82.1,DQ,Marcos Johnson,Lockhart,82.1,,,,,Single-ply,SBD,M
Boys,82.1,DQ,Gunner Brown,Lockhart,82.1,,,,,Single-ply,SBD,M
Boys,89.81,1,Justin Hatfield,Geronimo Navarro,88.45,204.12,124.74,229.06,557.92,Single-ply,SBD,M
Boys,89.81,2,Justin Torres,Lockhart,88.9,206.38,113.4,204.12,523.9,Single-ply,SBD,M
Boys,89.81,3,Kenneth Hernandez,Gonzales,86.77,204.12,106.59,195.04,505.76,Single-ply,SBD,M
Boys,89.81,4,Shawn Schmidt,Geronimo Navarro,87.54,183.7,122.47,199.58,505.76,Single-ply,SBD,M
Boys,89.81,5,Anthony Bennet,Stockdale,88.22,183.7,127.01,195.04,505.76,Single-ply,SBD,M
Boys,89.81,DQ,Rodney Filmore,La Grange,89.81,,,,,Single-ply,SBD,M
Boys,99.79,1,Curtis Hawkins,Lockhart,97.75,244.94,147.42,226.8,619.15,Single-ply,SBD,M
Boys,99.79,2,Jose Contreras,Gonzales,98.07,226.8,127.01,240.4,594.21,Single-ply,SBD,M
Boys,99.79,4,Justin Garza,Yoakum,92.76,188.24,120.2,179.17,487.61,Single-ply,SBD,M
Boys,99.79,5,Noe Gomez,Geronimo Navarro,90.26,170.1,111.13,176.9,458.13,Single-ply,SBD,M
Boys,99.79,DQ,Marshall Crabb,Geronimo Navarro,97.3,145.15,99.79,,,Single-ply,SBD,M
Boys,109.77,1,Jeremy Rodriguez #2,Geronimo Navarro,108.64,260.82,170.1,222.26,653.17,Single-ply,SBD,M
Boys,109.77,2,Gabriel García,Yoakum,106.59,260.82,151.95,238.14,650.91,Single-ply,SBD,M
Boys,109.77,3,Evan Martinek,La Grange,105.69,249.48,138.35,206.38,594.21,Single-ply,SBD,M
Boys,109.77,3,Walter Hood,Gonzales,100.06,240.4,115.67,204.12,560.19,Single-ply,SBD,M
Boys,109.77,4,Lane Springs,Geronimo Navarro,100.7,231.33,138.35,210.92,580.6,Single-ply,SBD,M
Boys,109.77,5,Neal Formolo,Yoakum,108.18,215.46,147.42,197.31,560.19,Single-ply,SBD,M
Boys,109.77,6,Grant Gage,La Grange,109.09,226.8,129.27,188.24,544.31,Single-ply,SBD,M
Boys,109.77,7,Jeremiah Cantu,Gonzales,106.64,192.78,115.67,181.44,489.88,Single-ply,SBD,M
Boys,109.77,8,Josh Bustos,Gonzales,103.24,188.24,108.86,181.44,478.54,Single-ply,SBD,M
Boys,109.77,DQ,Logan Hardin,La Grange,109.77,,,,,Single-ply,SBD,M
Boys,124.74,1,Zac Clack,Gonzales,122.02,272.16,147.42,272.16,691.73,Single-ply,SBD,M
Boys,124.74,2,Joshua Carroll,Stockdale,119.07,226.8,165.56,238.14,630.49,Single-ply,SBD,M
Boys,124.74,3,Michael Diaz,Stockdale,116.35,226.8,136.08,210.92,573.79,Single-ply,SBD,M
Boys,124.74,4,Walker Ellison,La Grange,116.57,238.14,115.67,151.95,505.76,Single-ply,SBD,M
Boys,124.74+,1,Martin Hidrago,Stockdale,130.63,233.6,138.35,217.72,589.67,Single-ply,SBD,M
Boys,124.74+,2,Alton Dilworth,Yoakum,127.01,226.8,108.86,185.97,521.63,Single-ply,SBD,M
