Division,WeightClassKg,Place,Name,Team,BodyweightKg,Best3SquatKg,Best3BenchKg,Best3DeadliftKg,TotalKg,Equipment,Event,Sex,BirthDate
Boys,51.71,1,Mason Greathouse,Merkel,44.81,79.38,58.97,79.38,217.72,Unlimited,SBD,M,
Boys,51.71,2,Delvon Carter,Merkel,46.54,61.23,29.48,74.84,165.56,Unlimited,SBD,M,
Boys,51.71,DQ,Douglas Doerschuk,Hawley,45.36,,,,,Unlimited,SBD,M,
Boys,55.79,1,Axel Rangel,Comanche,55.52,158.76,83.91,158.76,401.43,Unlimited,SBD,M,
Boys,55.79,2,Calib Hobbs,Hawley,54.98,124.74,74.84,129.27,328.85,Unlimited,SBD,M,
Boys,55.79,3,Lujan Obed,Odessa,53.98,113.4,61.23,127.01,301.64,Unlimited,SBD,M,
Boys,55.79,4,Clarke Bradlee,Odessa,54.25,97.52,79.38,106.59,283.5,Unlimited,SBD,M,
Boys,55.79,5,Joel Delagarza,Abilene,53.25,102.06,49.9,95.25,247.21,Unlimited,SBD,M,
Boys,55.79,6,Marshall Au,Abilene Cooper,52.53,92.99,47.63,97.52,238.14,Unlimited,SBD,M,
Boys,59.87,1,Josiah Salazar,Abilene Wylie,58.97,174.63,111.13,192.78,478.54,Unlimited,SBD,M,
Boys,59.87,2,Braden Burleson,Hawley,57.7,145.15,122.47,127.01,394.63,Unlimited,SBD,M,
Boys,59.87,3,Andrew Colclasure,Comanche,57.33,151.95,83.91,147.42,383.29,Unlimited,SBD,M,
Boys,59.87,4,Isaiah Lolopulos,Abilene Wylie,57.06,120.2,81.65,142.88,344.73,Unlimited,SBD,M,
Boys,59.87,5,Rudy Salcido,Odessa,58.69,147.42,65.77,127.01,340.19,Unlimited,SBD,M,
Boys,59.87,6,Atlas Dorner,Merkel,59.87,133.81,72.57,133.81,340.19,Unlimited,SBD,M,
Boys,59.87,DQ,Dominick Thomas,Abilene Cooper,59.56,,,,,Unlimited,SBD,M,
Boys,59.87,DQ,Garrett Felan,Anson,58.97,,,,,Unlimited,SBD,M,
Boys,67.13,1,Xavian Quiroz,Abilene Wylie,63.41,226.8,92.99,174.63,494.42,Unlimited,SBD,M,
Boys,67.13,2,Darren Odell,Comanche,65.23,142.88,88.45,147.42,378.75,Unlimited,SBD,M,
Boys,67.13,3,Ethan Joyner,Abilene,63.78,120.2,74.84,142.88,337.93,Unlimited,SBD,M,
Boys,67.13,4,Rhett Cadenhead,Anson,64.32,124.74,79.38,120.2,324.32,Unlimited,SBD,M,
Boys,67.13,5,Blaine Gonzales,Merkel,62.23,97.52,68.04,138.35,303.91,Unlimited,SBD,M,
Boys,67.13,6,Brayden Roensch,Hawley,61.14,102.06,70.31,111.13,283.5,Unlimited,SBD,M,
Boys,67.13,DQ,Dezi Delgado,Anson,63.5,,,,,Unlimited,SBD,M,
Boys,74.84,1,Revin Gavino,Abilene Wylie,72.48,240.4,156.49,201.85,598.74,Unlimited,SBD,M,
Boys,74.84,2,Cosme Gonzalez,Comanche,71.76,199.58,127.01,206.38,532.97,Unlimited,SBD,M,
Boys,74.84,3,Easton Gonzalez,Comanche,74.03,190.51,127.01,179.17,496.68,Unlimited,SBD,M,
Boys,74.84,4,Corey Layne,Anson,73.03,167.83,106.59,199.58,474,Unlimited,SBD,M,
Boys,74.84,5,Cooper Hill,Abilene Wylie,69.67,183.7,115.67,167.83,467.2,Unlimited,SBD,M,
Boys,74.84,6,Riley Rodriguez,Anson,67.68,170.1,97.52,183.7,451.32,Unlimited,SBD,M,
Boys,74.84,7,Toby Blankenship,Odessa,74.12,151.95,97.52,201.85,451.32,Unlimited,SBD,M,
Boys,74.84,8,Ethan Stalling,Hawley,70.03,188.24,106.59,151.95,446.79,Unlimited,SBD,M,
Boys,74.84,9,Xander Meridyth,Midland,74.57,156.49,106.59,165.56,428.64,Unlimited,SBD,M,
Boys,74.84,10,Da'Maurian King,Midland,71.03,158.76,104.33,158.76,421.84,Unlimited,SBD,M,
Boys,74.84,11,Stetson Campbell,Stamford,69.85,158.76,88.45,165.56,412.77,Unlimited,SBD,M,
Boys,74.84,12,James Calvery,Hawley,68.95,129.27,99.79,129.27,358.34,Unlimited,SBD,M,
Boys,74.84,13,Justin McGill,Abilene,70.67,124.74,77.11,142.88,344.73,Unlimited,SBD,M,
Boys,74.84,14,Remington Blythe,Hermleigh,74.39,111.13,83.91,142.88,337.93,Unlimited,SBD,M,
Boys,74.84,15,Markius Mcclure,Hermleigh,74.84,111.13,65.77,147.42,324.32,Unlimited,SBD,M,
Boys,74.84,16,Daniel Rios,Comanche,71.3,115.67,63.5,124.74,303.91,Unlimited,SBD,M,
Boys,74.84,DQ,Johnny Trousdale,Ranger,68.04,,,,,Unlimited,SBD,M,
Boys,74.84,DQ,Kaiden Cuellar,Ranger,70.76,,,,,Unlimited,SBD,M,
Boys,74.84,DQ,Adam Gurule,Abilene Cooper,74.07,154.22,,,,Unlimited,SBD,M,
Boys,74.84,DQ,Hunter Bowen,Anson,74.39,97.52,,,,Unlimited,SBD,M,
Boys,82.1,1,Danny Garcia,Abilene Wylie,81.92,242.67,151.95,226.8,621.42,Unlimited,SBD,M,
Boys,82.1,2,Elias Ramos,Anson,81.92,222.26,129.27,229.06,580.6,Unlimited,SBD,M,
Boys,82.1,3,Kevin Rivera,Abilene,80.29,183.7,115.67,185.97,485.34,Unlimited,SBD,M,
Boys,82.1,4,Christian Smith,Abilene Wylie,79.92,183.7,115.67,183.7,483.08,Unlimited,SBD,M,
Boys,82.1,5,Gabriel Allen,Abilene Cooper,81.69,154.22,124.74,188.24,467.2,Unlimited,SBD,M,
Boys,82.1,6,Dristain Payne,Abilene,76.38,165.56,88.45,185.97,439.98,Unlimited,SBD,M,
Boys,82.1,7,Wyatt King,Midland,77.47,158.76,104.33,158.76,421.84,Unlimited,SBD,M,
Boys,82.1,8,Teagan Pimpton,Stamford,81.65,154.22,97.52,170.1,421.84,Unlimited,SBD,M,
Boys,82.1,9,David Bacherini,Abilene Cooper,81.33,167.83,102.06,147.42,417.3,Unlimited,SBD,M,
Boys,82.1,10,Elijah Wood,Abilene,77.02,149.69,86.18,158.76,394.63,Unlimited,SBD,M,
Boys,82.1,11,Alexander Ponce,Stamford,80.2,163.29,81.65,142.88,387.82,Unlimited,SBD,M,
Boys,82.1,12,Aj Eggleston,Hawley,76.93,151.95,111.13,115.67,378.75,Unlimited,SBD,M,
Boys,82.1,13,Jesse Valerio,Odessa,80.74,122.47,56.7,147.42,326.59,Unlimited,SBD,M,
Boys,82.1,14,Aiden Smith,Hermleigh,82.1,104.33,72.57,136.08,312.98,Unlimited,SBD,M,
Boys,82.1,DQ,Diego Garcia,Comanche,76.2,,,,,Unlimited,SBD,M,
Boys,82.1,DQ,Lewis Northridge,Comanche,80.74,,,,,Unlimited,SBD,M,
Boys,82.1,DQ,Noel Somoza,Anson,81.65,,,,,Unlimited,SBD,M,
Boys,89.81,1,Kanyon Willeford,Hawley,88.81,204.12,183.7,204.12,591.94,Unlimited,SBD,M,
Boys,89.81,2,Joaquin Vasquez,Midland,89.81,217.72,133.81,201.85,553.38,Unlimited,SBD,M,
Boys,89.81,3,Cedric Brooks,Abilene Cooper,89.72,197.31,131.54,204.12,532.97,Unlimited,SBD,M,
Boys,89.81,4,Cornell Hunt,Midland,83.46,195.04,131.54,163.29,489.88,Unlimited,SBD,M,
Boys,89.81,5,Caleb Ellison,Merkel,83.64,158.76,124.74,190.51,474,Unlimited,SBD,M,
Boys,89.81,6,Alijah Lozano,Anson,88.45,181.44,102.06,174.63,458.13,Unlimited,SBD,M,
Boys,89.81,7,Canon Adams,Abilene Cooper,83.96,167.83,106.59,174.63,449.06,Unlimited,SBD,M,
Boys,89.81,8,Demotric Sanchez,Abilene,86.55,181.44,104.33,158.76,444.52,Unlimited,SBD,M,
Boys,89.81,9,Aj Lipham,Anson,89.27,151.95,95.25,151.95,399.16,Unlimited,SBD,M,
Boys,89.81,10,Esteban Skiles,Odessa,84.19,120.2,88.45,142.88,351.53,Unlimited,SBD,M,
Boys,89.81,11,Aaron Olvera,Hermleigh,84.73,124.74,77.11,147.42,349.27,Unlimited,SBD,M,
Boys,89.81,DQ,William Lopez,Comanche,89.36,142.88,111.13,,,Unlimited,SBD,M,
Boys,99.79,1,Chris Yagi,Abilene Wylie,96.16,240.4,138.35,215.46,594.21,Unlimited,SBD,M,
Boys,99.79,2,Daylan McGee,Hermleigh,91.17,210.92,117.93,226.8,555.65,Unlimited,SBD,M,
Boys,99.79,3,Jairo Montes,Odessa,92.26,208.65,138.35,199.58,546.58,Unlimited,SBD,M,
Boys,99.79,4,Cayden Hutchinson,Abilene Wylie,96.71,215.46,124.74,206.38,546.58,Unlimited,SBD,M,
Boys,99.79,5,Jesus Montes,Odessa,91.99,192.78,138.35,201.85,532.97,Unlimited,SBD,M,
Boys,99.79,6,Case Beeson,Stamford,99.79,197.31,108.86,208.65,514.83,Unlimited,SBD,M,
Boys,99.79,7,Hayden Parker,Anson,95.8,165.56,106.59,201.85,474,Unlimited,SBD,M,
Boys,99.79,8,Joel Avitia,Odessa,93.44,176.9,102.06,174.63,453.59,Unlimited,SBD,M,
Boys,99.79,9,Aden Brito,Midland,92.9,158.76,108.86,170.1,437.72,Unlimited,SBD,M,
Boys,99.79,10,Derek Fernandez,Midland,96.34,147.42,115.67,170.1,433.18,Unlimited,SBD,M,
Boys,99.79,11,Jerrod Turner,Abilene,99.79,183.7,83.91,165.56,433.18,Unlimited,SBD,M,
Boys,99.79,12,Jose Huerta,Merkel,99.79,142.88,97.52,170.1,410.5,Unlimited,SBD,M,
Boys,99.79,13,Rylan Ortiz,Merkel,99.61,151.95,106.59,136.08,394.63,Unlimited,SBD,M,
Boys,99.79,14,Rhyan Esparza,Abilene,94.26,136.08,81.65,145.15,362.87,Unlimited,SBD,M,
Boys,99.79,15,Jose Hernandez,Hawley,90.72,61.23,74.84,124.74,260.82,Unlimited,SBD,M,
Boys,99.79,DQ,Skyler Faimoa,Abilene,91.08,,,,,Unlimited,SBD,M,
Boys,99.79,DQ,Jim Boima,Abilene,98.97,183.7,,,,Unlimited,SBD,M,
Boys,109.77,1,Israel Massouema,Abilene Cooper,106.87,204.12,145.15,217.72,566.99,Unlimited,SBD,M,
Boys,109.77,2,Ethan Salas,Abilene Wylie,109.77,197.31,154.22,215.46,566.99,Unlimited,SBD,M,
Boys,109.77,3,G. Carter,Abilene Cooper,103.15,192.78,138.35,201.85,532.97,Unlimited,SBD,M,
Boys,109.77,4,Boss Brake,Abilene,100.88,197.31,111.13,190.51,498.95,Unlimited,SBD,M,
Boys,109.77,5,Aamanni Strahan,Abilene,102.87,181.44,97.52,170.1,449.06,Unlimited,SBD,M,
Boys,109.77,6,Marcus Andrade,Abilene Cooper,108.36,158.76,113.4,174.63,446.79,Unlimited,SBD,M,
Boys,109.77,7,Aiden Ortiz,Odessa,102.51,161.03,92.99,161.03,415.04,Unlimited,SBD,M,
Boys,109.77,8,Reid Campbell,Hermleigh,109.77,158.76,97.52,158.76,415.04,Unlimited,SBD,M,
Boys,109.77,9,Miles Hatch,Comanche,103.42,206.38,124.74,,331.12,Unlimited,SB,M,
Boys,109.77,DQ,Dee Carr,Hermleigh,109.77,,,,,Unlimited,SBD,M,
Boys,109.77,DQ,Aiden Pogue,Abilene Wylie,105.51,,,,,Unlimited,SBD,M,
Boys,124.74,1,Carson Martin,Abilene Wylie,110.13,249.48,163.29,240.4,653.17,Unlimited,SBD,M,
Boys,124.74,2,Giovanni Meza,Midland,117.66,217.72,140.61,213.19,571.53,Unlimited,SBD,M,
Boys,124.74,3,Jonah Ovalle,Midland,116.21,233.6,124.74,210.92,569.26,Unlimited,SBD,M,
Boys,124.74,4,Darrion Mitchell,Midland,114.67,231.33,136.08,192.78,560.19,Unlimited,SBD,M,
Boys,124.74,5,Shetonde Polepole,Abilene,121.83,219.99,102.06,204.12,526.17,Unlimited,SBD,M,
Boys,124.74,6,Jayden Starks,Abilene,113.04,188.24,92.99,183.7,464.93,Unlimited,SBD,M,
Boys,124.74,7,Micah Moreno,Anson,111.31,206.38,92.99,151.95,451.32,Unlimited,SBD,M,
Boys,124.74,8,Jayden Flores,Abilene Cooper,124.01,197.31,104.33,149.69,451.32,Unlimited,SBD,M,
Boys,124.74,9,Evan Cisneros,Stamford,119.84,154.22,102.06,154.22,410.5,Unlimited,SBD,M,
Boys,124.74,DQ,Randy Williamson,Anson,122.47,,,,,Unlimited,SBD,M,
Boys,124.74,DQ,Zayden Harty,Hermleigh,124.74,,,,,Unlimited,SBD,M,
Boys,124.74,DQ,Aiden Bockenstedt,Hawley,114.31,,,,,Unlimited,SBD,M,
Boys,124.74,DQ,Oscar Villarreal,Ranger,119.02,,,,,Unlimited,SBD,M,
Boys,124.74,DQ,Jacob Gutierrez,Odessa,111.31,158.76,,,,Unlimited,SBD,M,
Boys,139.71,1,Jace Thompson,Anson,125.55,183.7,124.74,197.31,505.76,Unlimited,SBD,M,
Boys,139.71,2,Pulelei'ite Primus,Midland,138.62,170.1,120.2,172.37,462.66,Unlimited,SBD,M,
Boys,139.71,3,Ethan Hutsell,Abilene Cooper,134.63,154.22,92.99,154.22,401.43,Unlimited,SBD,M,
Boys,139.71,4,Kaleb Bethley,Abilene Cooper,129.32,142.88,102.06,149.69,394.63,Unlimited,SBD,M,
Boys,139.71,5,Christian Ortega,Hawley,127.91,43.09,61.23,106.59,210.92,Unlimited,SBD,M,
Boys,139.71+,1,Kayden Bryan,Abilene Cooper,153.5,249.48,190.51,249.48,689.46,Unlimited,SBD,M,
Boys,139.71+,2,Dalton Duncan,Merkel,153.95,244.94,170.1,249.48,664.51,Unlimited,SBD,M,
Boys,139.71+,3,Landon Deters,Comanche,179.17,226.8,142.88,233.6,603.28,Unlimited,SBD,M,
Boys,139.71+,4,Lacurtis Washington,Midland,150.68,249.48,129.27,204.12,582.87,Unlimited,SBD,M,
Boys,139.71+,5,Danny Lopez,Comanche,143.15,219.99,129.27,147.42,496.68,Unlimited,SBD,M,
Boys,139.71+,6,Isaac Ruacho,Hermleigh,140.61,183.7,92.99,192.78,469.47,Unlimited,SBD,M,
