Division,WeightClassKg,Place,Name,Team,BodyweightKg,Best3SquatKg,Best3BenchKg,Best3DeadliftKg,TotalKg,Equipment,Event,Sex,BirthDate
Boys,51.71,1,Sebastian Urteaga,Eustace,48.99,117.93,61.23,115.67,294.84,Single-ply,SBD,M,
Boys,51.71,2,Jaden Lopez,Sunnyvale,49.44,92.99,45.36,99.79,238.14,Single-ply,SBD,M,
Boys,51.71,DQ,Jack Turner,Lone Oak,51.71,,,,,Single-ply,SBD,M,
Boys,55.79,1,BJ Stidham,Gladewater Sabine,55.79,192.78,102.06,215.46,510.29,Single-ply,SBD,M,
Boys,55.79,2,Julio Ramirez,Lone Oak,55.79,151.95,70.31,136.08,358.34,Single-ply,SBD,M,
Boys,55.79,DQ,Jace Newkirk,Lone Oak,53.98,124.74,,,,Single-ply,SBD,M,
Boys,55.79,DQ,Aaron Neal,Eustace,55.57,,,,,Single-ply,SBD,M,
Boys,59.87,1,Ethan Adair,Lone Oak,59.87,174.63,106.59,165.56,446.79,Single-ply,SBD,M,
Boys,59.87,2,Kile Stripland,Gladewater Sabine,59.87,151.95,104.33,136.08,392.36,Single-ply,SBD,M,
Boys,59.87,3,Zane Smith #1,Gladewater Sabine,58.06,122.47,102.06,142.88,367.41,Single-ply,SBD,M,
Boys,59.87,4,Nathanial Hall,Athens,58.51,136.08,68.04,117.93,322.05,Single-ply,SBD,M,
Boys,59.87,5,Blazyn Saxson,Athens,59.42,104.33,63.5,124.74,292.57,Single-ply,SBD,M,
Boys,59.87,6,Kaden O'Neal,Sunnyvale,58.06,97.52,61.23,120.2,278.96,Single-ply,SBD,M,
Boys,59.87,7,Tre Neve,Sunnyvale,59.87,106.59,52.16,120.2,278.96,Single-ply,SBD,M,
Boys,59.87,8,Cassius Brown,Athens,58.51,106.59,56.7,102.06,265.35,Single-ply,SBD,M,
Boys,67.13,1,Cole Hahn,Lone Oak,66.95,210.92,131.54,190.51,532.97,Single-ply,SBD,M,
Boys,67.13,2,Creed Carter,Sanger,63.05,210.92,104.33,199.58,514.83,Single-ply,SBD,M,
Boys,67.13,3,Dane Redman,White Oak,67.13,183.7,115.67,195.04,494.42,Single-ply,SBD,M,
Boys,67.13,4,Ethan Fort,Lone Oak,66.68,210.92,81.65,174.63,467.2,Single-ply,SBD,M,
Boys,67.13,5,Logan Baker #3,Eustace,67.13,170.1,92.99,149.69,412.77,Single-ply,SBD,M,
Boys,67.13,6,Caleb Clemmons,Athens,66.22,149.69,95.25,142.88,387.82,Single-ply,SBD,M,
Boys,67.13,7,Camden Ward,Gladewater Sabine,66.68,142.88,90.72,154.22,387.82,Single-ply,SBD,M,
Boys,67.13,8,Matthew Leavitt,Sunnyvale,66.22,142.88,81.65,158.76,383.29,Single-ply,SBD,M,
Boys,67.13,9,Chris Cade,Canton,64.86,147.42,72.57,161.03,381.02,Single-ply,SBD,M,
Boys,67.13,10,Teancum Lewis,Lone Oak,61.69,136.08,95.25,117.93,349.27,Single-ply,SBD,M,
Boys,67.13,11,Matthew Amar,Sunnyvale,66.22,136.08,83.91,129.27,349.27,Single-ply,SBD,M,
Boys,67.13,12,Braydon Bradshaw,Van,66.68,124.74,77.11,111.13,312.98,Single-ply,SBD,M,
Boys,67.13,13,Jason Christian,Van,65.32,127.01,63.5,117.93,308.44,Single-ply,SBD,M,
Boys,67.13,14,Jacob Walker,Mabank,63.5,102.06,61.23,113.4,276.69,Single-ply,SBD,M,
Boys,67.13,DQ,Anthony Guttoso,Mabank,63.5,92.99,,,,Single-ply,SBD,M,
Boys,67.13,DQ,Jesse Pratt,White Oak,61.69,124.74,,,,Single-ply,SBD,M,
Boys,74.84,1,Joe McCallum,Lone Oak,74.62,240.4,111.13,215.46,566.99,Single-ply,SBD,M,
Boys,74.84,2,Brenner Ratzlaff,White Oak,73.48,204.12,120.2,188.24,512.56,Single-ply,SBD,M,
Boys,74.84,3,Alec Morris,Gladewater Sabine,69.4,181.44,124.74,174.63,480.81,Single-ply,SBD,M,
Boys,74.84,4,Carson Coldwell,Sunnyvale,73.94,181.44,83.91,170.1,435.45,Single-ply,SBD,M,
Boys,74.84,5,Juan Robles,Canton,74.39,147.42,83.91,172.37,403.7,Single-ply,SBD,M,
Boys,74.84,6,David Austin,Eustace,74.84,133.81,92.99,176.9,403.7,Single-ply,SBD,M,
Boys,74.84,7,Matthew Martin,Longview Spring Hill,74.39,158.76,72.57,165.56,396.89,Single-ply,SBD,M,
Boys,74.84,8,Corbin Odle,Gladewater Sabine,72.57,142.88,92.99,149.69,385.55,Single-ply,SBD,M,
Boys,74.84,9,Jimmy Songer,Lone Oak,74.84,151.95,70.31,161.03,383.29,Single-ply,SBD,M,
Boys,74.84,10,Mason Moffatt,Van,74.57,149.69,90.72,136.08,376.48,Single-ply,SBD,M,
Boys,74.84,11,Garrett Florey,Van,74.84,136.08,86.18,136.08,358.34,Single-ply,SBD,M,
Boys,74.84,12,Reed Johnson,Van,74.39,163.29,81.65,108.86,353.8,Single-ply,SBD,M,
Boys,74.84,13,Grant Yudisky,Canton,69.4,133.81,68.04,129.27,331.12,Single-ply,SBD,M,
Boys,74.84,14,Timber Crouch,Athens,68.04,124.74,61.23,136.08,322.05,Single-ply,SBD,M,
Boys,74.84,15,Keaton Bohannon,Mabank,68.04,115.67,74.84,120.2,310.71,Single-ply,SBD,M,
Boys,74.84,16,Trevor Nuss,Mabank,68.95,106.59,65.77,129.27,301.64,Single-ply,SBD,M,
Boys,74.84,17,Dalton Morgan,White Oak,69.85,108.86,74.84,115.67,299.37,Single-ply,SBD,M,
Boys,74.84,18,Jesse Belcher,Eustace,68.95,113.4,70.31,106.59,290.3,Single-ply,SBD,M,
Boys,82.1,1,Gage Mauch,Lone Oak,81.74,238.14,129.27,197.31,564.72,Single-ply,SBD,M,
Boys,82.1,2,Daniel Williamson #2,White Oak,80.29,195.04,113.4,204.12,512.56,Single-ply,SBD,M,
Boys,82.1,3,Kole Stripland,Gladewater Sabine,78.93,192.78,113.4,183.7,489.88,Single-ply,SBD,M,
Boys,82.1,4,Cale Hayes,Corsicana Mildred,81.19,179.17,95.25,215.46,489.88,Single-ply,SBD,M,
Boys,82.1,5,Payton Thompson,Fruitvale,77.11,179.17,102.06,183.7,464.93,Single-ply,SBD,M,
Boys,82.1,6,Estaban Munoz,Winona,80.74,181.44,108.86,161.03,451.32,Single-ply,SBD,M,
Boys,82.1,7,Kaden McFaul,Longview Spring Hill,78.47,158.76,81.65,170.1,410.5,Single-ply,SBD,M,
Boys,82.1,8,Jeremiah Corley,Fruitvale,82.1,142.88,74.84,151.95,369.68,Single-ply,SBD,M,
Boys,82.1,9,Brandon Browning,Mabank,82.1,136.08,83.91,145.15,365.14,Single-ply,SBD,M,
Boys,82.1,10,Jarrod Mickens,Athens,81.65,133.81,92.99,136.08,362.87,Single-ply,SBD,M,
Boys,82.1,11,Billy Hopkins,Mabank,79.38,122.47,77.11,124.74,324.32,Single-ply,SBD,M,
Boys,82.1,DQ,Adam Sims,Terrell,78.93,,,,,Single-ply,SBD,M,
Boys,82.1,DQ,Logan Smith #1,White Oak,81.65,142.88,,,,Single-ply,SBD,M,
Boys,89.81,1,Michael Marrs,Longview Spring Hill,83.23,206.38,122.47,249.48,578.33,Single-ply,SBD,M,
Boys,89.81,2,Klayton House,Athens,88.9,204.12,136.08,219.99,560.19,Single-ply,SBD,M,
Boys,89.81,3,Caden Hoefar,Lone Oak,86.18,213.19,122.47,185.97,521.63,Single-ply,SBD,M,
Boys,89.81,4,Daylon Branham,Gladewater Sabine,89.81,199.58,129.27,185.97,514.83,Single-ply,SBD,M,
Boys,89.81,5,Wade Rouser,Lone Oak,83.46,183.7,108.86,183.7,476.27,Single-ply,SBD,M,
Boys,89.81,6,Carson Hester,Gladewater Sabine,85.73,158.76,120.2,197.31,476.27,Single-ply,SBD,M,
Boys,89.81,7,Payton Rainbolt,Lone Oak,88.36,172.37,106.59,154.22,433.18,Single-ply,SBD,M,
Boys,89.81,8,Bayne Brinkman,Longview Spring Hill,85.5,133.81,83.91,179.17,396.89,Single-ply,SBD,M,
Boys,89.81,9,Demarquay Ford,Winona,89.81,136.08,97.52,158.76,392.36,Single-ply,SBD,M,
Boys,89.81,DQ,Joseph Hernandez #1,Terrell,88.45,127.01,,,,Single-ply,SBD,M,
Boys,99.79,1,Coltin Reed,Gladewater Sabine,98.43,204.12,133.81,181.44,519.36,Single-ply,SBD,M,
Boys,99.79,2,Rylie Redden,White Oak,97.98,185.97,127.01,192.78,505.76,Single-ply,SBD,M,
Boys,99.79,3,John Pope,Mabank,92.99,176.9,113.4,181.44,471.74,Single-ply,SBD,M,
Boys,99.79,4,Corden Blount,Longview Spring Hill,94.8,181.44,77.11,185.97,444.52,Single-ply,SBD,M,
Boys,99.79,5,Justin Henson,Eustace,91.63,167.83,106.59,154.22,428.64,Single-ply,SBD,M,
Boys,99.79,6,Bj Russell,Fruitvale,98.88,183.7,74.84,142.88,401.43,Single-ply,SBD,M,
Boys,99.79,7,Taylor Wilson,Gladewater Sabine,93.89,142.88,106.59,149.69,399.16,Single-ply,SBD,M,
Boys,99.79,8,Luke Taylor,Sunnyvale,99.79,158.76,102.06,136.08,396.89,Single-ply,SBD,M,
Boys,99.79,9,Christian Hedgeman,Terrell,96.62,158.76,77.11,151.95,387.82,Single-ply,SBD,M,
Boys,99.79,10,Sergio Martinez,Terrell,92.08,136.08,70.31,174.63,381.02,Single-ply,SBD,M,
Boys,99.79,11,Kolby Smith,Mabank,92.53,124.74,72.57,127.01,324.32,Single-ply,SBD,M,
Boys,99.79,12,Cody Phillips,Terrell,97.07,120.2,68.04,124.74,312.98,Single-ply,SBD,M,
Boys,99.79,13,Hughston White,Longview Spring Hill,94.8,124.74,54.43,129.27,308.44,Single-ply,SBD,M,
Boys,99.79,14,Kaden Ramo,Longview Spring Hill,94.35,99.79,61.23,127.01,288.03,Single-ply,SBD,M,
Boys,99.79,DQ,Brayden Mendoza,White Oak,91.17,181.44,,,,Single-ply,SBD,M,
Boys,109.77,1,Jaden Luhn,Lone Oak,109.77,254.01,124.74,208.65,587.4,Single-ply,SBD,M,
Boys,109.77,2,Logan Hancock,Corsicana Mildred,108.41,204.12,111.13,215.46,530.7,Single-ply,SBD,M,
Boys,109.77,3,Brandon Krenek,Longview Spring Hill,106.59,192.78,111.13,188.24,492.15,Single-ply,SBD,M,
Boys,109.77,4,Elijah Sanford,Corsicana Mildred,108.41,183.7,111.13,174.63,469.47,Single-ply,SBD,M,
Boys,109.77,5,Asher Foster,Gladewater Sabine,106.14,163.29,124.74,170.1,458.13,Single-ply,SBD,M,
Boys,109.77,6,Nathan Ramey,Sunnyvale,103.42,165.56,106.59,158.76,430.91,Single-ply,SBD,M,
Boys,109.77,7,Hearsey McCrady,Terrell,101.15,138.35,86.18,136.08,360.61,Single-ply,SBD,M,
Boys,109.77,8,Kye McKinley,Longview Spring Hill,102.06,113.4,54.43,142.88,310.71,Single-ply,SBD,M,
Boys,109.77,DQ,Davion Simpson,Longview Spring Hill,101.6,88.45,,,,Single-ply,SBD,M,
Boys,109.77,DQ,Rogers Martin,Fruitvale,102.51,165.56,,,,Single-ply,SBD,M,
Boys,124.74,1,Aj Hill,Athens,122.47,224.53,136.08,215.46,576.06,Single-ply,SBD,M,
Boys,124.74,2,Raul Carrasco,Mabank,121.56,240.4,115.67,208.65,564.72,Single-ply,SBD,M,
Boys,124.74,3,Jacob Kimbrough,Longview Spring Hill,112.94,210.92,106.59,197.31,514.83,Single-ply,SBD,M,
Boys,124.74,4,Luke Ummel,White Oak,116.12,181.44,111.13,188.24,480.81,Single-ply,SBD,M,
Boys,124.74,5,Dustin Luker,Terrell,121.56,185.97,90.72,183.7,460.4,Single-ply,SBD,M,
Boys,124.74,6,Caleb Otten,Van,120.2,183.7,99.79,174.63,458.13,Single-ply,SBD,M,
Boys,124.74,7,Manuel Blancas,Athens,118.84,161.03,138.35,151.95,451.32,Single-ply,SBD,M,
Boys,124.74,8,Jeffrey Cook,White Oak,112.94,136.08,106.59,181.44,424.11,Single-ply,SBD,M,
Boys,124.74,9,Spencer Shinn,Van,116.12,158.76,120.2,142.88,421.84,Single-ply,SBD,M,
Boys,124.74,10,Fernando Rodriquez,Winona,124.74,140.61,79.38,136.08,356.07,Single-ply,SBD,M,
Boys,124.74+,1,Carson Manasse,Longview Spring Hill,144.7,276.69,156.49,238.14,671.32,Single-ply,SBD,M,
Boys,124.74+,2,Tristan Green,Gladewater Sabine,131.54,226.8,174.63,217.72,619.15,Single-ply,SBD,M,
Boys,124.74+,3,Josh Lambert #5,Canton,131.09,197.31,113.4,185.97,496.68,Single-ply,SBD,M,
Boys,124.74+,4,Tyler Richardson,Terrell,130.18,190.51,111.13,181.44,483.08,Single-ply,SBD,M,
Boys,124.74+,5,Billy Metzger,Sunnyvale,125.65,172.37,113.4,176.9,462.66,Single-ply,SBD,M,
Boys,,NS,Jalen Hobbs,Terrell,,,,,,Single-ply,SBD,M,
Boys,,NS,Lukas Coronado,Terrell,,,,,,Single-ply,SBD,M,
Boys,,NS,Jj Barrera,Winona,,,,,,Single-ply,SBD,M,
Boys,,NS,Matthew Shankles,Longview Spring Hill,,,,,,Single-ply,SBD,M,
Boys,,NS,Brody Barnhill,Longview Spring Hill,,,,,,Single-ply,SBD,M,
